22 Arrow – R para la Ciencia de Datos (2e)
…
Podemos comenzar a usar este conjunto de datos con verbos dplyr, usando collect() para forzar a arrow a realizar el cálculo y devolver algunos datos. Por ejemplo, este código nos dice el número total de pagos por año:

seattle_csv |> 
  group_by(CheckoutYear) |> 
  summarise(Checkouts = sum(Checkouts)) |> 
  arrange(CheckoutYear) |> 
  collect()
#> # A tibble: 18 × 2
#>   CheckoutYear Checkouts
#>          <int>     <int>
#> 1         2005   3798685
#> 2         2006   6599318
#> 3         2007   7126627
#> 4         2008   8438486
#> 5         2009   9135167
#> 6         2010   8608966
#> # ℹ 12 more rows
…
pq_path <- "data/seattle-library-checkouts"

seattle_csv |>
  group_by(CheckoutYear) |>
  write_dataset(path = pq_path, format = "parquet")

Esto tarda aproximadamente un minuto en ejecutarse; como veremos en breve, esta es una inversión inicial que vale la pena al hacer que las operaciones futuras sean mucho más rápidas.

Echemos un vistazo a lo que acabamos de producir:

tibble(
  files = list.files(pq_path, recursive = TRUE),
  size_MB = file.size(file.path(pq_path, files)) / 1024^2
)
#> # A tibble: 18 × 2
#>   files                            size_MB
#>   <chr>                              <dbl>
#> 1 CheckoutYear=2005/part-0.parquet    109.
#> 2 CheckoutYear=2006/part-0.parquet    164.
#> 3 CheckoutYear=2007/part-0.parquet    178.
#> 4 CheckoutYear=2008/part-0.parquet    195.
#> 5 CheckoutYear=2009/part-0.parquet    214.
#> 6 CheckoutYear=2010/part-0.parquet    222.
#> # ℹ 12 more rows
…
query
#> FileSystemDataset (query)
#> CheckoutYear: int32
#> CheckoutMonth: int64
#> TotalCheckouts: int64
#> 
#> * Grouped by CheckoutYear
#> * Sorted by CheckoutYear [asc], CheckoutMonth [asc]
#> See $.data for the source Arrow object

Y podemos obtener los resultados llamando collect():

query |> collect()
#> # A tibble: 58 × 3
#> # Groups:   CheckoutYear [5]
#>   CheckoutYear CheckoutMonth TotalCheckouts
#>          <int>         <int>          <int>
#> 1         2018             1         355101
#> 2         2018             2         309813
#> 3         2018             3         344487
#> 4         2018             4         330988
#> 5         2018             5         318049
#> 6         2018             6         341825
#> # ℹ 52 more rows
…
