R para la Ciencia de Datos (2e) - 27 Una guía para R base
…
Luego, en lugar de iterar sobre los elementos de paths, iteramos sobre sus índices, usando seq_along() para generar un índice para cada elemento de las rutas:

seq_along(paths)
#>  [1]  1  2  3  4  5  6  7  8  9 10 11 12

Usar los índices es importante porque nos permite vincular cada posición en la entrada con la posición correspondiente en la salida:

for (i in seq_along(paths)) {
  files[[i]] <- readxl::read_excel(paths[[i]])
}

Para combinar la lista de tibbles en un solo tibble puedes usar do.call() + rbind():

do.call(rbind, files)
#> # A tibble: 1,704 × 5
#>   country     continent lifeExp      pop gdpPercap
#>   <chr>       <chr>       <dbl>    <dbl>     <dbl>
#> 1 Afghanistan Asia         28.8  8425333      779.
#> 2 Albania     Europe       55.2  1282697     1601.
#> 3 Algeria     Africa       43.1  9279525     2449.
#> 4 Angola      Africa       30.0  4232095     3521.
#> 5 Argentina   Americas     62.5 17876956     5911.
#> 6 Australia   Oceania      69.1  8691212    10040.
#> # ℹ 1,698 more rows
…
