21 Bases de datos – R para la Ciencia de Datos (2e)
…
Si está utilizando duckdb en un proyecto real, le recomendamos que aprenda sobre duckdb_read_csv() y duckdb_register_arrow(). Estos le brindan formas potentes y eficaces de cargar rápidamente datos directamente en duckdb, sin tener que cargarlos primero en R. También mostraremos una técnica útil para cargar varios archivos en una base de datos en Sección 26.4.1.

21.3.3 DBI básico

Puede comprobar que los datos se cargan correctamente utilizando un par de otras funciones de DBI: dbListTables() enumera todas las tablas de la base de datos3 y dbReadTable() recupera el contenido de una tabla.

dbListTables(con)
#> [1] "diamonds" "mpg"

con |> 
  dbReadTable("diamonds") |> 
  as_tibble()
#> # A tibble: 53,940 × 10
#>   carat cut       color clarity depth table price     x     y     z
#>   <dbl> <fct>     <fct> <fct>   <dbl> <dbl> <int> <dbl> <dbl> <dbl>
#> 1  0.23 Ideal     E     SI2      61.5    55   326  3.95  3.98  2.43
#> 2  0.21 Premium   E     SI1      59.8    61   326  3.89  3.84  2.31
#> 3  0.23 Good      E     VS1      56.9    65   327  4.05  4.07  2.31
#> 4  0.29 Premium   I     VS2      62.4    58   334  4.2   4.23  2.63
#> 5  0.31 Good      J     SI2      63.3    58   335  4.34  4.35  2.75
#> 6  0.24 Very Good J     VVS2     62.8    57   336  3.94  3.96  2.48
#> # ℹ 53,934 more rows

dbReadTable() devuelve un data.frame por lo que usamos as_tibble() para convertirlo en un tibble para que se imprima bien.

Si ya conoce SQL, puede usar dbGetQuery() para obtener los resultados de ejecutar una consulta en la base de datos:

sql <- "
  SELECT carat, cut, clarity, color, price 
  FROM diamonds 
  WHERE price > 15000
"
as_tibble(dbGetQuery(con, sql))
#> # A tibble: 1,655 × 5
#>   carat cut       clarity color price
#>   <dbl> <fct>     <fct>   <fct> <int>
#> 1  1.54 Premium   VS2     E     15002
#> 2  1.19 Ideal     VVS1    F     15005
#> 3  2.1  Premium   SI1     I     15007
#> 4  1.69 Ideal     SI1     D     15011
#> 5  1.5  Very Good VVS2    G     15013
#> 6  1.73 Very Good VS1     G     15014
#> # ℹ 1,649 more rows
…
Puede ver el código SQL generado por la función dbplyr show_query(). Si conoce dplyr, ¡esta es una excelente manera de aprender SQL! Escriba algo de código dplyr, obtenga dbplyr para traducirlo a SQL y luego intente averiguar cómo coinciden los dos idiomas.

big_diamonds_db |>
  show_query()
#> <SQL>
#> SELECT carat, cut, color, clarity, price
#> FROM diamonds
#> WHERE (price > 15000.0)

Para recuperar todos los datos en R, llama a collect(). Detrás de escena, esto genera el SQL, llama a dbGetQuery() para obtener los datos, luego convierte el resultado en un tibble:

big_diamonds <- big_diamonds_db |> 
  collect()
big_diamonds
#> # A tibble: 1,655 × 5
#>   carat cut       color clarity price
#>   <dbl> <fct>     <fct> <fct>   <int>
#> 1  1.54 Premium   E     VS2     15002
#> 2  1.19 Ideal     F     VVS1    15005
#> 3  2.1  Premium   I     SI1     15007
#> 4  1.69 Ideal     D     SI1     15011
#> 5  1.5  Very Good G     VVS2    15013
#> 6  1.73 Very Good G     VS1     15014
#> # ℹ 1,649 more rows
…
