7 Importación de datos – R para la Ciencia de Datos (2e)
…
7.4 Lectura de datos de varios archivos

A veces, sus datos se dividen en varios archivos en lugar de estar contenidos en un solo archivo. Por ejemplo, puede tener datos de ventas de varios meses, con los datos de cada mes en un archivo separado: 01-sales.csv para enero, 02-sales.csv para febrero y 03-sales.csv para marzo. Con read_csv() puedes leer estos datos a la vez y apilarlos uno encima del otro en un solo data frame.

sales_files <- c("data/01-sales.csv", "data/02-sales.csv", "data/03-sales.csv")
read_csv(sales_files, id = "file")
#> Rows: 19 Columns: 6
#> ── Column specification ─────────────────────────────────────────────────────
#> Delimiter: ","
#> chr (1): month
#> dbl (4): year, brand, item, n
#> 
#> ℹ Use `spec()` to retrieve the full column specification for this data.
#> ℹ Specify the column types or set `show_col_types = FALSE` to quiet this message.
#> # A tibble: 19 × 6
#>   file              month    year brand  item     n
#>   <chr>             <chr>   <dbl> <dbl> <dbl> <dbl>
#> 1 data/01-sales.csv January  2019     1  1234     3
#> 2 data/01-sales.csv January  2019     1  8721     9
#> 3 data/01-sales.csv January  2019     1  1822     2
#> 4 data/01-sales.csv January  2019     2  3333     1
#> 5 data/01-sales.csv January  2019     2  2156     9
#> 6 data/01-sales.csv January  2019     2  3987     6
#> # ℹ 13 more rows
…
