5 Ordenando datos – R para la Ciencia de Datos (2e)
…
Puede representar los mismos datos subyacentes de varias formas. El siguiente ejemplo muestra los mismos datos organizados de tres maneras diferentes. Cada conjunto de datos muestra los mismos valores de cuatro variables: país (country), año (year), población (population) y número de casos (cases) documentados de TB (tuberculosis), pero cada conjunto de datos organiza los valores de manera diferente.

table1
#> # A tibble: 6 × 4
#>   country      year  cases population
#>   <chr>       <dbl>  <dbl>      <dbl>
#> 1 Afghanistan  1999    745   19987071
#> 2 Afghanistan  2000   2666   20595360
#> 3 Brazil       1999  37737  172006362
#> 4 Brazil       2000  80488  174504898
#> 5 China        1999 212258 1272915272
#> 6 China        2000 213766 1280428583

table2
#> # A tibble: 12 × 4
#>   country      year type           count
#>   <chr>       <dbl> <chr>          <dbl>
#> 1 Afghanistan  1999 cases            745
#> 2 Afghanistan  1999 population  19987071
#> 3 Afghanistan  2000 cases           2666
#> 4 Afghanistan  2000 population  20595360
#> 5 Brazil       1999 cases          37737
#> 6 Brazil       1999 population 172006362
#> # ℹ 6 more rows
…
Los datos a menudo se organizan para facilitar algún objetivo que no sea el análisis. Por ejemplo, es común que los datos estén estructurados para facilitar la entrada de datos, no el análisis.

La mayoría de las personas no están familiarizadas con los principios de los datos ordenados, y es difícil derivarlos usted mismo a menos que pase mucho tiempo trabajando con datos.

Esto significa que la mayoría de los análisis reales requerirán al menos un poco de limpieza. Comenzará averiguando cuáles son las variables y observaciones subyacentes. A veces esto es fácil; otras veces necesitará consultar con las personas que generaron originalmente los datos. A continuación, pivotará sus datos en una forma ordenada, con variables en las columnas y observaciones en las filas.

tidyr proporciona dos funciones para pivotar datos: pivot_longer() y pivot_wider(). Empezaremos con pivot_longer() porque es el caso más común. Veamos unos ejemplos.

5.3.1 Datos en nombres de columna

El conjunto de datos billboard registra el rango de las canciones en la cartelera en el año 2000:

billboard
#> # A tibble: 317 × 79
#>   artist       track               date.entered   wk1   wk2   wk3   wk4   wk5
#>   <chr>        <chr>               <date>       <dbl> <dbl> <dbl> <dbl> <dbl>
#> 1 2 Pac        Baby Don't Cry (Ke… 2000-02-26      87    82    72    77    87
#> 2 2Ge+her      The Hardest Part O… 2000-09-02      91    87    92    NA    NA
#> 3 3 Doors Down Kryptonite          2000-04-08      81    70    68    67    66
#> 4 3 Doors Down Loser               2000-10-21      76    76    72    69    67
#> 5 504 Boyz     Wobble Wobble       2000-04-15      57    34    25    17    17
#> 6 98^0         Give Me Just One N… 2000-08-19      51    39    34    26    26
#> # ℹ 311 more rows
#> # ℹ 71 more variables: wk6 <dbl>, wk7 <dbl>, wk8 <dbl>, wk9 <dbl>, …

En este conjunto de datos, cada observación es una canción. Las primeras tres columnas (artist, track y date.entered) son variables que describen la canción. Luego tenemos 76 columnas (wk1-wk76) que describen el rango de la canción en cada semana1. Aquí, los nombres de las columnas son una variable (la semana) y los valores de las celdas son otra (el rango).

Para ordenar estos datos, usaremos pivot_longer():

billboard |> 
  pivot_longer(
    cols = starts_with("wk"), 
    names_to = "week", 
    values_to = "rank"
  )
#> # A tibble: 24,092 × 5
#>    artist track                   date.entered week   rank
#>    <chr>  <chr>                   <date>       <chr> <dbl>
#>  1 2 Pac  Baby Don't Cry (Keep... 2000-02-26   wk1      87
#>  2 2 Pac  Baby Don't Cry (Keep... 2000-02-26   wk2      82
#>  3 2 Pac  Baby Don't Cry (Keep... 2000-02-26   wk3      72
#>  4 2 Pac  Baby Don't Cry (Keep... 2000-02-26   wk4      77
#>  5 2 Pac  Baby Don't Cry (Keep... 2000-02-26   wk5      87
#>  6 2 Pac  Baby Don't Cry (Keep... 2000-02-26   wk6      94
#>  7 2 Pac  Baby Don't Cry (Keep... 2000-02-26   wk7      99
#>  8 2 Pac  Baby Don't Cry (Keep... 2000-02-26   wk8      NA
#>  9 2 Pac  Baby Don't Cry (Keep... 2000-02-26   wk9      NA
#> 10 2 Pac  Baby Don't Cry (Keep... 2000-02-26   wk10     NA
#> # ℹ 24,082 more rows
…
values_to nombra la variable almacenada en los valores de celda, llamamos a esa variable rank.

Tenga en cuenta que en el código se citan "week" y "rank" porque son variables nuevas que estamos creando, aún no existen en los datos cuando ejecutamos la llamada pivot_longer().

Ahora dirijamos nuestra atención al marco de datos más largo resultante. ¿Qué sucede si una canción está en el top 100 durante menos de 76 semanas? Tome “Baby Don’t Cry” de 2 Pac, por ejemplo. El resultado anterior sugiere que estuvo solo en el top 100 durante 7 semanas, y todas las semanas restantes se completan con valores faltantes. Estas NA no representan realmente observaciones desconocidas; están obligados a existir por la estructura del conjunto de datos 2, por lo que podemos pedirle a pivot_longer() que se deshaga de ellos configurando values_drop_na = TRUE:

billboard |> 
  pivot_longer(
    cols = starts_with("wk"), 
    names_to = "week", 
    values_to = "rank",
    values_drop_na = TRUE
  )
#> # A tibble: 5,307 × 5
#>   artist track                   date.entered week   rank
#>   <chr>  <chr>                   <date>       <chr> <dbl>
#> 1 2 Pac  Baby Don't Cry (Keep... 2000-02-26   wk1      87
#> 2 2 Pac  Baby Don't Cry (Keep... 2000-02-26   wk2      82
#> 3 2 Pac  Baby Don't Cry (Keep... 2000-02-26   wk3      72
#> 4 2 Pac  Baby Don't Cry (Keep... 2000-02-26   wk4      77
#> 5 2 Pac  Baby Don't Cry (Keep... 2000-02-26   wk5      87
#> 6 2 Pac  Baby Don't Cry (Keep... 2000-02-26   wk6      94
#> # ℹ 5,301 more rows
…
Estos datos ahora están ordenados, pero podríamos hacer que el cálculo futuro sea un poco más fácil al convertir week en un número usando mutate() y readr::parse_number(). parse_number() es una función útil que extraerá el primer número de una cadena, ignorando el resto del texto.

billboard_longer <- billboard |> 
  pivot_longer(
    cols = starts_with("wk"), 
    names_to = "week", 
    values_to = "rank",
    values_drop_na = TRUE
  ) |> 
  mutate(
    week = parse_number(week)
  )
billboard_longer
#> # A tibble: 5,307 × 5
#>   artist track                   date.entered  week  rank
#>   <chr>  <chr>                   <date>       <dbl> <dbl>
#> 1 2 Pac  Baby Don't Cry (Keep... 2000-02-26       1    87
#> 2 2 Pac  Baby Don't Cry (Keep... 2000-02-26       2    82
#> 3 2 Pac  Baby Don't Cry (Keep... 2000-02-26       3    72
#> 4 2 Pac  Baby Don't Cry (Keep... 2000-02-26       4    77
#> 5 2 Pac  Baby Don't Cry (Keep... 2000-02-26       5    87
#> 6 2 Pac  Baby Don't Cry (Keep... 2000-02-26       6    94
#> # ℹ 5,301 more rows
…
Figura 5.5: El número de valores se conserva (no se repite), pero se desenrolla fila por fila.

5.3.3 Muchas variables en los nombres de las columnas

Una situación más desafiante ocurre cuando tiene múltiples piezas de información abarrotadas en los nombres de las columnas y desea almacenarlas en nuevas variables separadas. Por ejemplo, tome el conjunto de datos who2, la fuente de table_1 y amigos que vió con anterioridad:

who2
#> # A tibble: 7,240 × 58
#>   country      year sp_m_014 sp_m_1524 sp_m_2534 sp_m_3544 sp_m_4554
#>   <chr>       <dbl>    <dbl>     <dbl>     <dbl>     <dbl>     <dbl>
#> 1 Afghanistan  1980       NA        NA        NA        NA        NA
#> 2 Afghanistan  1981       NA        NA        NA        NA        NA
#> 3 Afghanistan  1982       NA        NA        NA        NA        NA
#> 4 Afghanistan  1983       NA        NA        NA        NA        NA
#> 5 Afghanistan  1984       NA        NA        NA        NA        NA
#> 6 Afghanistan  1985       NA        NA        NA        NA        NA
#> # ℹ 7,234 more rows
#> # ℹ 51 more variables: sp_m_5564 <dbl>, sp_m_65 <dbl>, sp_f_014 <dbl>, …

Este conjunto de datos, recopilado por la Organización Mundial de la Salud, registra información sobre diagnósticos de tuberculosis. Hay dos columnas que ya son variables y son fáciles de interpretar: country y year. Les siguen 56 columnas como sp_m_014, ep_m_4554 y rel_m_3544. Si observa estas columnas durante el tiempo suficiente, notará que hay un patrón. Cada nombre de columna se compone de tres piezas separadas por _. La primera pieza, sp/rel/ep, describe el método utilizado para el diagnóstico, la segunda pieza, m/f es el género (codificado como una variable binaria en este conjunto de datos) , y la tercera pieza, 014/1524/2534/3544/4554/5564/``65 es el rango de edad (014 representa 0-14, por ejemplo).

Entonces, en este caso, tenemos seis piezas de información registradas en who2: el país y el año (ya columnas); el método de diagnóstico, la categoría de género y la categoría de rango de edad (contenidas en los otros nombres de columna); y el recuento de pacientes en esa categoría (valores de celda). Para organizar estas seis piezas de información en seis columnas separadas, usamos pivot_longer() con un vector de nombres de columna para names_to e instructores para dividir los nombres de las variables originales en partes para names_sep, así como un nombre de columna para values_to:

who2 |> 
  pivot_longer(
    cols = !(country:year),
    names_to = c("diagnosis", "gender", "age"), 
    names_sep = "_",
    values_to = "count"
  )
#> # A tibble: 405,440 × 6
#>   country      year diagnosis gender age   count
#>   <chr>       <dbl> <chr>     <chr>  <chr> <dbl>
#> 1 Afghanistan  1980 sp        m      014      NA
#> 2 Afghanistan  1980 sp        m      1524     NA
#> 3 Afghanistan  1980 sp        m      2534     NA
#> 4 Afghanistan  1980 sp        m      3544     NA
#> 5 Afghanistan  1980 sp        m      4554     NA
#> 6 Afghanistan  1980 sp        m      5564     NA
#> # ℹ 405,434 more rows
…
Este conjunto de datos contiene información sobre cinco familias, con los nombres y fechas de nacimiento de hasta dos niños. El nuevo desafío en este conjunto de datos es que los nombres de las columnas contienen los nombres de dos variables (dob, name) y los valores de otra (child, con valores 1 o 2). Para resolver este problema, nuevamente necesitamos proporcionar un vector a names_to pero esta vez usamos el centinela especial ".value"; este no es el nombre de una variable sino un valor único que le dice a pivot_longer() que haga algo diferente. Esto anula el argumento values_to habitual para usar el primer componente del nombre de la columna dinámica como nombre de variable en la salida.

household |> 
  pivot_longer(
    cols = !family, 
    names_to = c(".value", "child"), 
    names_sep = "_", 
    values_drop_na = TRUE
  )
#> # A tibble: 9 × 4
#>   family child  dob        name 
#>    <int> <chr>  <date>     <chr>
#> 1      1 child1 1998-11-26 Susan
#> 2      1 child2 2000-01-29 Jose 
#> 3      2 child1 1996-06-22 Mark 
#> 4      3 child1 2002-07-11 Sam  
#> 5      3 child2 2004-04-05 Seth 
#> 6      4 child1 2004-10-10 Craig
#> # ℹ 3 more rows
…
Figura 5.7: Pivotar con names_to = c(".value", "num") divide los nombres de las columnas en dos componentes: la primera parte determina la columna de salida nombre (x o y), y la segunda parte determina el valor de la columna num.

5.4 Ampliación de datos

Hasta ahora hemos usado pivot_longer() para resolver la clase común de problemas donde los valores terminan en los nombres de las columnas. A continuación, pivotaremos (HA HA) a pivot_wider(), que hace un conjunto de datos más ancho al incrementar el número de columnas y reducir las filas lo que ayuda cuando una observación se distribuye en varias filas. Esto parece surgir con menos frecuencia en la naturaleza, pero parece surgir mucho cuando se trata de datos gubernamentales.

Comenzaremos analizando cms_patient_experience, un conjunto de datos de los servicios de los Centros de Medicare y Medicaid que recopila datos sobre las experiencias de los pacientes:

cms_patient_experience
#> # A tibble: 500 × 5
#>   org_pac_id org_nm                     measure_cd   measure_title   prf_rate
#>   <chr>      <chr>                      <chr>        <chr>              <dbl>
#> 1 0446157747 USC CARE MEDICAL GROUP INC CAHPS_GRP_1  CAHPS for MIPS…       63
#> 2 0446157747 USC CARE MEDICAL GROUP INC CAHPS_GRP_2  CAHPS for MIPS…       87
#> 3 0446157747 USC CARE MEDICAL GROUP INC CAHPS_GRP_3  CAHPS for MIPS…       86
#> 4 0446157747 USC CARE MEDICAL GROUP INC CAHPS_GRP_5  CAHPS for MIPS…       57
#> 5 0446157747 USC CARE MEDICAL GROUP INC CAHPS_GRP_8  CAHPS for MIPS…       85
#> 6 0446157747 USC CARE MEDICAL GROUP INC CAHPS_GRP_12 CAHPS for MIPS…       24
#> # ℹ 494 more rows
…
Ninguna de estas columnas hará nombres de variables particularmente buenos: measure_cd no sugiere el significado de la variable y measure_title es una oración larga que contiene espacios. Usaremos measure_cd como la fuente para nuestros nuevos nombres de columna por ahora, pero en un análisis real, es posible que desee crear sus propios nombres de variables que sean cortos y significativos.

`pivot_wider() tiene la interfaz opuesta a pivot_longer(): en lugar de elegir nuevos nombres de columna, debemos proporcionar las columnas existentes que definen los valores (values_from) y el nombre de la columna (names_from):

cms_patient_experience |> 
  pivot_wider(
    names_from = measure_cd,
    values_from = prf_rate
  )
#> # A tibble: 500 × 9
#>   org_pac_id org_nm                   measure_title   CAHPS_GRP_1 CAHPS_GRP_2
#>   <chr>      <chr>                    <chr>                 <dbl>       <dbl>
#> 1 0446157747 USC CARE MEDICAL GROUP … CAHPS for MIPS…          63          NA
#> 2 0446157747 USC CARE MEDICAL GROUP … CAHPS for MIPS…          NA          87
#> 3 0446157747 USC CARE MEDICAL GROUP … CAHPS for MIPS…          NA          NA
#> 4 0446157747 USC CARE MEDICAL GROUP … CAHPS for MIPS…          NA          NA
#> 5 0446157747 USC CARE MEDICAL GROUP … CAHPS for MIPS…          NA          NA
#> 6 0446157747 USC CARE MEDICAL GROUP … CAHPS for MIPS…          NA          NA
#> # ℹ 494 more rows
#> # ℹ 4 more variables: CAHPS_GRP_3 <dbl>, CAHPS_GRP_5 <dbl>, …

La salida no se ve muy bien; todavía parece que tenemos varias filas para cada organización. Eso es porque, también necesitamos decirle a pivot_wider() qué columna o columnas tienen valores que identifican de manera única cada fila; en este caso esas son las variables que comienzan con "org":

cms_patient_experience |> 
  pivot_wider(
    id_cols = starts_with("org"),
    names_from = measure_cd,
    values_from = prf_rate
  )
#> # A tibble: 95 × 8
#>   org_pac_id org_nm           CAHPS_GRP_1 CAHPS_GRP_2 CAHPS_GRP_3 CAHPS_GRP_5
#>   <chr>      <chr>                  <dbl>       <dbl>       <dbl>       <dbl>
#> 1 0446157747 USC CARE MEDICA…          63          87          86          57
#> 2 0446162697 ASSOCIATION OF …          59          85          83          63
#> 3 0547164295 BEAVER MEDICAL …          49          NA          75          44
#> 4 0749333730 CAPE PHYSICIANS…          67          84          85          65
#> 5 0840104360 ALLIANCE PHYSIC…          66          87          87          64
#> 6 0840109864 REX HOSPITAL INC          73          87          84          67
#> # ℹ 89 more rows
#> # ℹ 2 more variables: CAHPS_GRP_8 <dbl>, CAHPS_GRP_12 <dbl>
…
