1 Visualización de datos – R para la Ciencia de Datos (2e)
…
Una variable es una cantidad, calidad o propiedad que puedes medir.

Un valor es el estado de una variable cuando la mides. El valor de una variable puede cambiar de una medida a otra.

Una observación es un conjunto de mediciones realizadas en condiciones similares (usualmente realiza todas las mediciones en una observación al mismo tiempo y en el mismo objeto). Una observación contendrá varios valores, cada uno asociado con una variable diferente. A veces nos referiremos a una observación como un punto de datos.

Datos tabulares es un conjunto de valores, cada uno asociado con una variable y una observación. Los datos tabulares están ordenados si cada valor se coloca en su propia “celda”, cada variable en su propia columna y cada observación en su propia fila.

En este contexto, una variable se refiere a un atributo de todos los pingüinos y una observación se refiere a todos los atributos de un solo pingüino.

Escriba el nombre del data frame en la consola y R imprimirá una vista previa de su contenido. Tenga en cuenta que dice “tibble” en la parte superior de esta vista previa. En tidyverse, usamos data frames especiales llamados tibbles sobre los que aprenderá más pronto.

penguins
#> # A tibble: 344 × 8
#>   species island    bill_length_mm bill_depth_mm flipper_length_mm
#>   <fct>   <fct>              <dbl>         <dbl>             <int>
#> 1 Adelie  Torgersen           39.1          18.7               181
#> 2 Adelie  Torgersen           39.5          17.4               186
#> 3 Adelie  Torgersen           40.3          18                 195
#> 4 Adelie  Torgersen           NA            NA                  NA
#> 5 Adelie  Torgersen           36.7          19.3               193
#> 6 Adelie  Torgersen           39.3          20.6               190
#> # ℹ 338 more rows
#> # ℹ 3 more variables: body_mass_g <int>, sex <fct>, year <int>
…
