3 Transformación de datos – R para la Ciencia de Datos (2e)
…
Tome nota del mensaje de conflictos que se imprime cuando carga el tidyverse. Te dice que dplyr sobrescribe algunas funciones en base R. Si desea utilizar la versión base de estas funciones después de cargar dplyr, deberá utilizar sus nombres completos: stats::filter() y stats::lag(). Hasta ahora hemos ignorado en su mayoría de qué paquete proviene una función porque la mayoría de las veces no importa. Sin embargo, conocer el paquete puede ayudarlo a encontrar ayuda y funciones relacionadas, por lo que cuando necesitemos ser precisos sobre de qué paquete proviene una función, usaremos la misma sintaxis que R: nombrepaquete::nombrefuncion().

3.1.2 nycflights13

Para explorar los verbos básicos de dplyr, usaremos nycflights13::flights. Este conjunto de datos contiene todos los 336,776 vuelos que partieron de la ciudad de Nueva York en 2013. Los datos provienen de la Oficina de Estadísticas de Transporte de EE. UU. y están documentados en ?flights.

flights
#> # A tibble: 336,776 × 19
#>    year month   day dep_time sched_dep_time dep_delay arr_time sched_arr_time
#>   <int> <int> <int>    <int>          <int>     <dbl>    <int>          <int>
#> 1  2013     1     1      517            515         2      830            819
#> 2  2013     1     1      533            529         4      850            830
#> 3  2013     1     1      542            540         2      923            850
#> 4  2013     1     1      544            545        -1     1004           1022
#> 5  2013     1     1      554            600        -6      812            837
#> 6  2013     1     1      554            558        -4      740            728
#> # ℹ 336,770 more rows
#> # ℹ 11 more variables: arr_delay <dbl>, carrier <chr>, flight <int>, …
…
Los verbos de dplyr están organizados en cuatro grupos según lo que operan: filas, columnas, grupos o tablas. En las siguientes secciones, aprenderá los verbos más importantes para filas, columnas y grupos, luego regresaremos a los verbos de unión que funcionan en tablas en Capítulo 19. ¡Vamos a empezar!

3.2 Filas

Los verbos más importantes que operan en las filas de un conjunto de datos son filter(), que cambia qué filas están presentes sin cambiar su orden, y arrange(), que cambia el orden de las filas sin cambiar cuáles están presentes. Ambas funciones solo afectan a las filas y las columnas no se modifican. También hablaremos de distinct(), que encuentra filas con valores únicos pero, a diferencia de arrange() y filter(), también puede modificar opcionalmente las columnas.

3.2.1 filter()

filter() le permite mantener filas en función de los valores de las columnas 1. El primer argumento es el data frame. El segundo argumento y los subsiguientes son las condiciones que deben cumplirse para mantener la fila. Por ejemplo, podríamos encontrar todos los vuelos que salieron con más de 120 minutos (dos horas) de retraso:

flights |> 
  filter(dep_delay > 120)
#> # A tibble: 9,723 × 19
#>    year month   day dep_time sched_dep_time dep_delay arr_time sched_arr_time
#>   <int> <int> <int>    <int>          <int>     <dbl>    <int>          <int>
#> 1  2013     1     1      848           1835       853     1001           1950
#> 2  2013     1     1      957            733       144     1056            853
#> 3  2013     1     1     1114            900       134     1447           1222
#> 4  2013     1     1     1540           1338       122     2020           1825
#> 5  2013     1     1     1815           1325       290     2120           1542
#> 6  2013     1     1     1842           1422       260     1958           1535
#> # ℹ 9,717 more rows
#> # ℹ 11 more variables: arr_delay <dbl>, carrier <chr>, flight <int>, …

Además de > (mayor que), puede usar >= (mayor o igual que), < (menor que), <= (menor o igual que), == (igual a) y != (no igual a). También puede combinar condiciones con & o , para indicar “y” (verifique ambas condiciones) o con | para indicar “o” (verifique cualquiera de las dos condiciones):

# Vuelos que partieron el 1 de enero
flights |> 
  filter(month == 1 & day == 1)
#> # A tibble: 842 × 19
#>    year month   day dep_time sched_dep_time dep_delay arr_time sched_arr_time
#>   <int> <int> <int>    <int>          <int>     <dbl>    <int>          <int>
#> 1  2013     1     1      517            515         2      830            819
#> 2  2013     1     1      533            529         4      850            830
#> 3  2013     1     1      542            540         2      923            850
#> 4  2013     1     1      544            545        -1     1004           1022
#> 5  2013     1     1      554            600        -6      812            837
#> 6  2013     1     1      554            558        -4      740            728
#> # ℹ 836 more rows
#> # ℹ 11 more variables: arr_delay <dbl>, carrier <chr>, flight <int>, …

# Vuelos que salieron en enero o febrero
flights |> 
  filter(month == 1 | month == 2)
#> # A tibble: 51,955 × 19
#>    year month   day dep_time sched_dep_time dep_delay arr_time sched_arr_time
#>   <int> <int> <int>    <int>          <int>     <dbl>    <int>          <int>
#> 1  2013     1     1      517            515         2      830            819
#> 2  2013     1     1      533            529         4      850            830
#> 3  2013     1     1      542            540         2      923            850
#> 4  2013     1     1      544            545        -1     1004           1022
#> 5  2013     1     1      554            600        -6      812            837
#> 6  2013     1     1      554            558        -4      740            728
#> # ℹ 51,949 more rows
#> # ℹ 11 more variables: arr_delay <dbl>, carrier <chr>, flight <int>, …

Hay un atajo útil cuando estás combinando | y ==: %in%. Mantiene filas donde la variable es igual a uno de los valores de la derecha:

# Una forma más corta de seleccionar vuelos que partieron en enero o febrero
flights |> 
  filter(month %in% c(1, 2))
#> # A tibble: 51,955 × 19
#>    year month   day dep_time sched_dep_time dep_delay arr_time sched_arr_time
#>   <int> <int> <int>    <int>          <int>     <dbl>    <int>          <int>
#> 1  2013     1     1      517            515         2      830            819
#> 2  2013     1     1      533            529         4      850            830
#> 3  2013     1     1      542            540         2      923            850
#> 4  2013     1     1      544            545        -1     1004           1022
#> 5  2013     1     1      554            600        -6      812            837
#> 6  2013     1     1      554            558        -4      740            728
#> # ℹ 51,949 more rows
#> # ℹ 11 more variables: arr_delay <dbl>, carrier <chr>, flight <int>, …
…
Otro error es escribir declaraciones “o” como lo haría en español:

flights |> 
  filter(month == 1 | 2)

Esto “funciona”, en el sentido de que no arroja un error, pero no hace lo que quieres porque | primero verifica la condición month == 1 y luego verifica la condición 2, que no es una condición sensata para comprobar. Aprenderemos más sobre lo que sucede aquí y por qué en Sección 12.3.2.

3.2.3 arrange()

arrange() cambia el orden de las filas según el valor de las columnas. Se necesita un data frame y un conjunto de nombres de columna (o expresiones más complicadas) para ordenar. Si proporciona más de un nombre de columna, cada columna adicional se usará para desempatar los valores de las columnas anteriores. Por ejemplo, el siguiente código ordena por hora de salida, que se distribuye en cuatro columnas. Obtenemos primero los primeros años, luego, dentro de un año, los primeros meses, etc.

flights |> 
  arrange(year, month, day, dep_time)
#> # A tibble: 336,776 × 19
#>    year month   day dep_time sched_dep_time dep_delay arr_time sched_arr_time
#>   <int> <int> <int>    <int>          <int>     <dbl>    <int>          <int>
#> 1  2013     1     1      517            515         2      830            819
#> 2  2013     1     1      533            529         4      850            830
#> 3  2013     1     1      542            540         2      923            850
#> 4  2013     1     1      544            545        -1     1004           1022
#> 5  2013     1     1      554            600        -6      812            837
#> 6  2013     1     1      554            558        -4      740            728
#> # ℹ 336,770 more rows
#> # ℹ 11 more variables: arr_delay <dbl>, carrier <chr>, flight <int>, …

Puede usar desc() en una columna dentro de arrange() para reordenar el marco de datos en función de esa columna en orden descendente (de mayor a menor). Por ejemplo, este código ordena los vuelos de mayor a menor retraso:

flights |> 
  arrange(desc(dep_delay))
#> # A tibble: 336,776 × 19
#>    year month   day dep_time sched_dep_time dep_delay arr_time sched_arr_time
#>   <int> <int> <int>    <int>          <int>     <dbl>    <int>          <int>
#> 1  2013     1     9      641            900      1301     1242           1530
#> 2  2013     6    15     1432           1935      1137     1607           2120
#> 3  2013     1    10     1121           1635      1126     1239           1810
#> 4  2013     9    20     1139           1845      1014     1457           2210
#> 5  2013     7    22      845           1600      1005     1044           1815
#> 6  2013     4    10     1100           1900       960     1342           2211
#> # ℹ 336,770 more rows
#> # ℹ 11 more variables: arr_delay <dbl>, carrier <chr>, flight <int>, …

Tenga en cuenta que la cantidad de filas no ha cambiado: solo estamos organizando los datos, no los estamos filtrando.

3.2.4 distinct()

distinct() encuentra todas las filas únicas en un conjunto de datos, por lo que, en un sentido técnico, opera principalmente en las filas. Sin embargo, la mayoría de las veces, querrá la combinación distinta de algunas variables, por lo que también puede proporcionar opcionalmente nombres de columna:

# Eliminar filas duplicadas, si las hay
flights |> 
  distinct()
#> # A tibble: 336,776 × 19
#>    year month   day dep_time sched_dep_time dep_delay arr_time sched_arr_time
#>   <int> <int> <int>    <int>          <int>     <dbl>    <int>          <int>
#> 1  2013     1     1      517            515         2      830            819
#> 2  2013     1     1      533            529         4      850            830
#> 3  2013     1     1      542            540         2      923            850
#> 4  2013     1     1      544            545        -1     1004           1022
#> 5  2013     1     1      554            600        -6      812            837
#> 6  2013     1     1      554            558        -4      740            728
#> # ℹ 336,770 more rows
#> # ℹ 11 more variables: arr_delay <dbl>, carrier <chr>, flight <int>, …

# Encuentre todos los pares únicos de origen y destino
flights |> 
  distinct(origin, dest)
#> # A tibble: 224 × 2
#>   origin dest 
#>   <chr>  <chr>
#> 1 EWR    IAH  
#> 2 LGA    IAH  
#> 3 JFK    MIA  
#> 4 JFK    BQN  
#> 5 LGA    ATL  
#> 6 EWR    ORD  
#> # ℹ 218 more rows

Alternativamente, si desea mantener otras columnas al filtrar filas únicas, puede usar la opción .keep_all = TRUE.

flights |> 
  distinct(origin, dest, .keep_all = TRUE)
#> # A tibble: 224 × 19
#>    year month   day dep_time sched_dep_time dep_delay arr_time sched_arr_time
#>   <int> <int> <int>    <int>          <int>     <dbl>    <int>          <int>
#> 1  2013     1     1      517            515         2      830            819
#> 2  2013     1     1      533            529         4      850            830
#> 3  2013     1     1      542            540         2      923            850
#> 4  2013     1     1      544            545        -1     1004           1022
#> 5  2013     1     1      554            600        -6      812            837
#> 6  2013     1     1      554            558        -4      740            728
#> # ℹ 218 more rows
#> # ℹ 11 more variables: arr_delay <dbl>, carrier <chr>, flight <int>, …

No es una coincidencia que todos estos vuelos distintos sean el 1 de enero: distinct() encontrará la primera aparición de una fila única en el conjunto de datos y descartará el resto.

Si quieres encontrar el número de ocurrencias, es mejor que cambies distinct() por count(), y con el argumento sort = TRUE puedes organizarlas en orden descendente según el número de ocurrencias. Aprenderá más sobre el conteo en Sección 13.3.

flights |>
  count(origin, dest, sort = TRUE)
#> # A tibble: 224 × 3
#>   origin dest      n
#>   <chr>  <chr> <int>
#> 1 JFK    LAX   11262
#> 2 LGA    ATL   10263
#> 3 LGA    ORD    8857
#> 4 JFK    SFO    8204
#> 5 LGA    CLT    6168
#> 6 EWR    ORD    6100
#> # ℹ 218 more rows
…
3.3 Columnas

Hay cuatro verbos importantes que afectan las columnas sin cambiar las filas: mutate() crea nuevas columnas que se derivan de las columnas existentes, select() cambia qué columnas están presentes, rename() cambia los nombres de las columnas, y relocate() cambia las posiciones de las columnas.

3.3.1 mutate()

El trabajo de mutate() es agregar nuevas columnas que se calculan a partir de las columnas existentes. En los capítulos de transformación, aprenderá un gran conjunto de funciones que puede usar para manipular diferentes tipos de variables. Por ahora, nos apegaremos al álgebra básica, que nos permite calcular la ganancia, cuánto tiempo recuperó un vuelo retrasado en el aire y la velocidad en millas por hora:

flights |> 
  mutate(
    ganancia = dep_delay - arr_delay,
    velocidad = distance / air_time * 60
  )
#> # A tibble: 336,776 × 21
#>    year month   day dep_time sched_dep_time dep_delay arr_time sched_arr_time
#>   <int> <int> <int>    <int>          <int>     <dbl>    <int>          <int>
#> 1  2013     1     1      517            515         2      830            819
#> 2  2013     1     1      533            529         4      850            830
#> 3  2013     1     1      542            540         2      923            850
#> 4  2013     1     1      544            545        -1     1004           1022
#> 5  2013     1     1      554            600        -6      812            837
#> 6  2013     1     1      554            558        -4      740            728
#> # ℹ 336,770 more rows
#> # ℹ 13 more variables: arr_delay <dbl>, carrier <chr>, flight <int>, …

De forma predeterminada, mutate() agrega nuevas columnas en el lado derecho de su conjunto de datos, lo que dificulta ver lo que está sucediendo aquí. Podemos usar el argumento .before para agregar las variables al lado izquierdo 2:

flights |> 
  mutate(
    ganancia = dep_delay - arr_delay,
    velocidad = distance / air_time * 60,
    .before = 1
  )
#> # A tibble: 336,776 × 21
#>   ganancia velocidad  year month   day dep_time sched_dep_time dep_delay
#>      <dbl>     <dbl> <int> <int> <int>    <int>          <int>     <dbl>
#> 1       -9      370.  2013     1     1      517            515         2
#> 2      -16      374.  2013     1     1      533            529         4
#> 3      -31      408.  2013     1     1      542            540         2
#> 4       17      517.  2013     1     1      544            545        -1
#> 5       19      394.  2013     1     1      554            600        -6
#> 6      -16      288.  2013     1     1      554            558        -4
#> # ℹ 336,770 more rows
#> # ℹ 13 more variables: arr_time <int>, sched_arr_time <int>, …
…
starts_with("abc"): coincide con los nombres que comienzan con “abc”.

ends_with("xyz"): encuentra nombres que terminan en “xyz”.

contains("ijk"): encuentra nombres que contienen “ijk”.

num_range("x", 1:3): coincide con x1, x2 y x3.

Ver ?select para más detalles. Una vez que conozca las expresiones regulares (el tema de Capítulo 15), también podrá usar matches() para seleccionar variables que coincidan con un patrón.

Puede cambiar el nombre de las variables a medida que las selecciona con select() usando =. El nuevo nombre aparece en el lado izquierdo de =, y la variable antigua aparece en el lado derecho:

flights |> 
  select(tail_num = tailnum)
#> # A tibble: 336,776 × 1
#>   tail_num
#>   <chr>   
#> 1 N14228  
#> 2 N24211  
#> 3 N619AA  
#> 4 N804JB  
#> 5 N668DN  
#> 6 N39463  
#> # ℹ 336,770 more rows

3.3.3 rename()

Si desea conservar todas las variables existentes y cambiar el nombre de algunas, puede usar rename() en lugar de select():

flights |> 
  rename(tail_num = tailnum)
#> # A tibble: 336,776 × 19
#>    year month   day dep_time sched_dep_time dep_delay arr_time sched_arr_time
#>   <int> <int> <int>    <int>          <int>     <dbl>    <int>          <int>
#> 1  2013     1     1      517            515         2      830            819
#> 2  2013     1     1      533            529         4      850            830
#> 3  2013     1     1      542            540         2      923            850
#> 4  2013     1     1      544            545        -1     1004           1022
#> 5  2013     1     1      554            600        -6      812            837
#> 6  2013     1     1      554            558        -4      740            728
#> # ℹ 336,770 more rows
#> # ℹ 11 more variables: arr_delay <dbl>, carrier <chr>, flight <int>, …

Si tiene un montón de columnas con nombres inconsistentes y sería doloroso arreglarlas todas a mano, consulte janitor::clean_names() que proporciona una limpieza automatizada útil.

3.3.4 relocate()

Usa relocate() para mover las variables. Es posible que desee recopilar variables relacionadas juntas o mover variables importantes al frente. Por defecto relocate() mueve las variables al frente:

flights |> 
  relocate(time_hour, air_time)
#> # A tibble: 336,776 × 19
#>   time_hour           air_time  year month   day dep_time sched_dep_time
#>   <dttm>                 <dbl> <int> <int> <int>    <int>          <int>
#> 1 2013-01-01 05:00:00      227  2013     1     1      517            515
#> 2 2013-01-01 05:00:00      227  2013     1     1      533            529
#> 3 2013-01-01 05:00:00      160  2013     1     1      542            540
#> 4 2013-01-01 05:00:00      183  2013     1     1      544            545
#> 5 2013-01-01 06:00:00      116  2013     1     1      554            600
#> 6 2013-01-01 05:00:00      150  2013     1     1      554            558
#> # ℹ 336,770 more rows
#> # ℹ 12 more variables: dep_delay <dbl>, arr_time <int>, …
…
3.4 Canalizaciones o pipe

Le mostramos ejemplos simples de las canalizaciones anteriormente, pero su verdadero poder surge cuando comienza a combinar varios verbos. Por ejemplo, imagine que desea encontrar vuelos rápidos al aeropuerto IAH de Houston: debe combinar filter(), mutate(), select() y arrange():

flights |> 
  filter(dest == "IAH") |> 
  mutate(speed = distance / air_time * 60) |>
  select(year:day, dep_time, carrier, flight, speed) |>
  arrange(desc(speed))
#> # A tibble: 7,198 × 7
#>    year month   day dep_time carrier flight speed
#>   <int> <int> <int>    <int> <chr>    <int> <dbl>
#> 1  2013     7     9      707 UA         226  522.
#> 2  2013     8    27     1850 UA        1128  521.
#> 3  2013     8    28      902 UA        1711  519.
#> 4  2013     8    28     2122 UA        1022  519.
#> 5  2013     6    11     1628 UA        1178  515.
#> 6  2013     8    27     1017 UA         333  515.
#> # ℹ 7,192 more rows
…
