10 Análisis exploratorio de datos – R para la Ciencia de Datos (2e)
…
El tamaño de cada círculo en la gráfica muestra cuántas observaciones ocurrieron en cada combinación de valores. La covariación aparecerá como una fuerte correlación entre valores específicos de x y valores específicos de y.

Otro enfoque para explorar la relación entre estas variables es calcular los recuentos con dplyr:

diamonds |> 
  count(color, cut)
#> # A tibble: 35 × 3
#>   color cut           n
#>   <ord> <ord>     <int>
#> 1 D     Fair        163
#> 2 D     Good        662
#> 3 D     Very Good  1513
#> 4 D     Premium    1603
#> 5 D     Ideal      2834
#> 6 E     Fair        224
#> # ℹ 29 more rows
…
