16 Factores – R para la Ciencia de Datos (2e)
…
df <- read_csv(csv, col_types = cols(month = col_factor(meses_levels)))
#> Warning: One or more parsing issues, call `problems()` on your data frame for
#> details, e.g.:
#>   dat <- vroom(...)
#>   problems(dat)
df$month
#> [1] <NA> Feb  Mar 
#> Levels: Ene Feb Mar Abr May Jun Jul Ago Sep Oct Nov Dic

16.3 Encuesta Social General

Para el resto de este capítulo, usaremos forcats::gss_cat. Es una muestra de datos de la Encuesta Social General, una encuesta estadounidense de larga duración realizada por la organización de investigación independiente NORC en la Universidad de Chicago. La encuesta tiene miles de preguntas, por lo que en gss_cat Hadley seleccionó algunas que ilustrarán algunos desafíos comunes que encontrará al trabajar con factores.

gss_cat
#> # A tibble: 21,483 × 9
#>    year marital         age race  rincome        partyid           
#>   <int> <fct>         <int> <fct> <fct>          <fct>             
#> 1  2000 Never married    26 White $8000 to 9999  Ind,near rep      
#> 2  2000 Divorced         48 White $8000 to 9999  Not str republican
#> 3  2000 Widowed          67 White Not applicable Independent       
#> 4  2000 Never married    39 White Not applicable Ind,near rep      
#> 5  2000 Divorced         25 White Not applicable Not str democrat  
#> 6  2000 Married          25 White $20000 - 24999 Strong democrat   
#> # ℹ 21,477 more rows
#> # ℹ 3 more variables: relig <fct>, denom <fct>, tvhours <int>
…
16.4.1 Ejercicios

Hay algunos números sospechosamente altos en tvhours. ¿Es la media un buen resumen?

Para cada factor en gss_cat, identifique si el orden de los niveles es arbitrario o basado en principios.

¿Por qué mover “No aplicable” al frente de los niveles lo movió al final de la gráfica?

16.5 Modificar los niveles de los factores

Más poderoso que cambiar el orden de los niveles es cambiar sus valores. Esto le permite aclarar etiquetas para publicación y contraer niveles para visualizaciones de alto nivel. La herramienta más general y poderosa es fct_recode(). Le permite recodificar, o cambiar, el valor de cada nivel. Por ejemplo, tome la variable partyid del marco de datos gss_cat:

gss_cat |> count(partyid)
#> # A tibble: 10 × 2
#>   partyid                n
#>   <fct>              <int>
#> 1 No answer            154
#> 2 Don't know             1
#> 3 Other party          393
#> 4 Strong republican   2314
#> 5 Not str republican  3032
#> 6 Ind,near rep        1791
#> # ℹ 4 more rows
Los niveles son breves e inconsistentes. Modifiquémoslos para que sean más largos y usemos una construcción paralela. Como la mayoría de las funciones de renombrar y recodificar en tidyverse, los valores nuevos van a la izquierda y los valores antiguos van a la derecha:

gss_cat |>
  mutate(
    partyid = fct_recode(partyid,
      "Republican, strong"    = "Strong republican",
      "Republican, weak"      = "Not str republican",
      "Independent, near rep" = "Ind,near rep",
      "Independent, near dem" = "Ind,near dem",
      "Democrat, weak"        = "Not str democrat",
      "Democrat, strong"      = "Strong democrat"
    )
  ) |>
  count(partyid)
#> # A tibble: 10 × 2
#>   partyid                   n
#>   <fct>                 <int>
#> 1 No answer               154
#> 2 Don't know                1
#> 3 Other party             393
#> 4 Republican, strong     2314
#> 5 Republican, weak       3032
#> 6 Independent, near rep  1791
#> # ℹ 4 more rows
…
gss_cat |>
  mutate(relig = fct_lump_lowfreq(relig)) |>
  count(relig)
#> # A tibble: 2 × 2
#>   relig          n
#>   <fct>      <int>
#> 1 Protestant 10846
#> 2 Other      10637

En este caso, no es muy útil: es cierto que la mayoría de los estadounidenses en esta encuesta son protestantes, ¡pero probablemente nos gustaría ver más detalles! En cambio, podemos usar fct_lump_n() para especificar que queremos exactamente 10 grupos:

gss_cat |>
  mutate(relig = fct_lump_n(relig, n = 10)) |>
  count(relig, sort = TRUE)
#> # A tibble: 10 × 2
#>   relig          n
#>   <fct>      <int>
#> 1 Protestant 10846
#> 2 Catholic    5124
#> 3 None        3523
#> 4 Christian    689
#> 5 Other        458
#> 6 Jewish       388
#> # ℹ 4 more rows
…
