R para la Ciencia de Datos (2e) - 25 Funciones
…
Para resumir varias variables, deberá esperar hasta Sección 26.2, donde aprenderá a usar across().

Otra función auxiliar popular summarize() es una versión de count() que también calcula proporciones:

# https://twitter.com/Diabb6/status/1571635146658402309
count_prop <- function(df, var, sort = FALSE) {
  df |>
    count({{ var }}, sort = sort) |>
    mutate(prop = n / sum(n))
}

diamonds |> count_prop(clarity)
#> # A tibble: 8 × 3
#>   clarity     n   prop
#>   <ord>   <int>  <dbl>
#> 1 I1        741 0.0137
#> 2 SI2      9194 0.170 
#> 3 SI1     13065 0.242 
#> 4 VS2     12258 0.227 
#> 5 VS1      8171 0.151 
#> 6 VVS2     5066 0.0939
#> # ℹ 2 more rows

Esta función tiene tres argumentos: df, var y sort, y solo var debe aceptarse porque se pasa a count(), que utiliza el enmascaramiento de datos para todas las variables. Tenga en cuenta que usamos un valor predeterminado para sort, de modo que si el usuario no proporciona su propio valor, el valor predeterminado será FALSE.

O tal vez quiera encontrar los valores únicos ordenados de una variable para un subconjunto de los datos. En lugar de proporcionar una variable y un valor para realizar el filtrado, permitiremos que el usuario proporcione una condición:

unique_where <- function(df, condition, var) {
  df |> 
    filter({{ condition }}) |> 
    distinct({{ var }}) |> 
    arrange({{ var }})
}

# Encuentra todos los destinos en diciembre
flights |> unique_where(month == 12, dest)
#> # A tibble: 96 × 1
#>   dest 
#>   <chr>
#> 1 ABQ  
#> 2 ALB  
#> 3 ATL  
#> 4 AUS  
#> 5 AVL  
#> 6 BDL  
#> # ℹ 90 more rows
…
Esto no funciona porque group_by() usa enmascaramiento de datos, no selección ordenada. Podemos solucionar ese problema usando la práctica función pick(), que le permite usar la selección ordenada dentro de las funciones de enmascaramiento de datos:

count_missing <- function(df, group_vars, x_var) {
  df |> 
    group_by(pick({{ group_vars }})) |> 
    summarize(
      n_miss = sum(is.na({{ x_var }})),
      .groups = "drop"
  )
}

flights |> 
  count_missing(c(year, month, day), dep_time)
#> # A tibble: 365 × 4
#>    year month   day n_miss
#>   <int> <int> <int>  <int>
#> 1  2013     1     1      4
#> 2  2013     1     2      8
#> 3  2013     1     3     10
#> 4  2013     1     4      6
#> 5  2013     1     5      3
#> 6  2013     1     6      1
#> # ℹ 359 more rows
…
# https://twitter.com/pollicipes/status/1571606508944719876
count_wide <- function(data, rows, cols) {
  data |> 
    count(pick(c({{ rows }}, {{ cols }}))) |> 
    pivot_wider(
      names_from = {{ cols }}, 
      values_from = n,
      names_sort = TRUE,
      values_fill = 0
    )
}

diamonds |> count_wide(c(clarity, color), cut)
#> # A tibble: 56 × 7
#>   clarity color  Fair  Good `Very Good` Premium Ideal
#>   <ord>   <ord> <int> <int>       <int>   <int> <int>
#> 1 I1      D         4     8           5      12    13
#> 2 I1      E         9    23          22      30    18
#> 3 I1      F        35    19          13      34    42
#> 4 I1      G        53    19          16      46    16
#> 5 I1      H        52    14          12      46    38
#> 6 I1      I        34     9           8      24    17
#> # ℹ 50 more rows
…
