9 Capas – R para la Ciencia de Datos (2e)
…
9.1.1 Requisitos previos

Este capítulo se centra en ggplot2. Para acceder a los conjuntos de datos, las páginas de ayuda y las funciones utilizadas en este capítulo, cargue tidyverse ejecutando este código:

library(tidyverse)

9.2 Asignaciones de aesthetic

“El mayor valor de una imagen es cuando nos obliga a notar lo que nunca esperábamos ver.” — John Tukey

Recuerde que el marco de datos mpg incluido con el paquete ggplot2 contiene observaciones 234 en modelos de automóviles 38.

mpg
#> # A tibble: 234 × 11
#>   manufacturer model displ  year   cyl trans      drv     cty   hwy fl   
#>   <chr>        <chr> <dbl> <int> <int> <chr>      <chr> <int> <int> <chr>
#> 1 audi         a4      1.8  1999     4 auto(l5)   f        18    29 p    
#> 2 audi         a4      1.8  1999     4 manual(m5) f        21    29 p    
#> 3 audi         a4      2    2008     4 manual(m6) f        20    31 p    
#> 4 audi         a4      2    2008     4 auto(av)   f        21    30 p    
#> 5 audi         a4      2.8  1999     6 auto(l5)   f        16    26 p    
#> 6 audi         a4      2.8  1999     6 manual(m5) f        18    26 p    
#> # ℹ 228 more rows
#> # ℹ 1 more variable: class <chr>
…
