12 Vectores lógicos – R para la Ciencia de Datos (2e)
…
library(tidyverse)
library(nycflights13)

Sin embargo, a medida que empecemos a cubrir más herramientas, no siempre habrá un ejemplo real perfecto. Así que empezaremos a inventar algunos datos ficticios con c():

x <- c(1, 2, 3, 5, 7, 11, 13)
x * 2
#> [1]  2  4  6 10 14 22 26

Esto facilita la explicación de funciones individuales a costa de dificultar ver cómo podría aplicarse a sus problemas de datos. Solo recuerda que cualquier manipulación que hagamos a un vector flotante, puedes hacerla a una variable dentro de un data frame con mutate() y amigos.

df <- tibble(x)
df |> 
  mutate(y = x * 2)
#> # A tibble: 7 × 2
#>       x     y
#>   <dbl> <dbl>
#> 1     1     2
#> 2     2     4
#> 3     3     6
#> 4     5    10
#> 5     7    14
#> 6    11    22
#> # ℹ 1 more row

12.2 Comparaciones

Una forma muy común de crear un vector lógico es a través de una comparación numérica con <, <=, >, >=, != y ==. Hasta ahora, en su mayoría hemos creado variables lógicas de manera transitoria dentro de filter() — se calculan, usan y luego se descartan. Por ejemplo, el siguiente filtro encuentra todas las salidas diurnas que llegan aproximadamente a tiempo:

flights |> 
  filter(dep_time > 600 & dep_time < 2000 & abs(arr_delay) < 20)
#> # A tibble: 172,286 × 19
#>    year month   day dep_time sched_dep_time dep_delay arr_time sched_arr_time
#>   <int> <int> <int>    <int>          <int>     <dbl>    <int>          <int>
#> 1  2013     1     1      601            600         1      844            850
#> 2  2013     1     1      602            610        -8      812            820
#> 3  2013     1     1      602            605        -3      821            805
#> 4  2013     1     1      606            610        -4      858            910
#> 5  2013     1     1      606            610        -4      837            845
#> 6  2013     1     1      607            607         0      858            915
#> # ℹ 172,280 more rows
#> # ℹ 11 more variables: arr_delay <dbl>, carrier <chr>, flight <int>, …

Es útil saber que este es un atajo y que puedes crear explícitamente las variables lógicas subyacentes con mutate():

flights |> 
  mutate(
    daytime = dep_time > 600 & dep_time < 2000,
    approx_ontime = abs(arr_delay) < 20,
    .keep = "used"
  )
#> # A tibble: 336,776 × 4
#>   dep_time arr_delay daytime approx_ontime
#>      <int>     <dbl> <lgl>   <lgl>        
#> 1      517        11 FALSE   TRUE         
#> 2      533        20 FALSE   FALSE        
#> 3      542        33 FALSE   FALSE        
#> 4      544       -18 FALSE   TRUE         
#> 5      554       -25 FALSE   FALSE        
#> 6      554        12 FALSE   TRUE         
#> # ℹ 336,770 more rows
…
is.na(x) funciona con cualquier tipo de vector y devuelve TRUE, TRUE, para los valores faltantes y FALSE, FALSE, para todo lo demás:

is.na(c(TRUE, NA, FALSE))
#> [1] FALSE  TRUE FALSE
is.na(c(1, NA, 3))
#> [1] FALSE  TRUE FALSE
is.na(c("a", NA, "b"))
#> [1] FALSE  TRUE FALSE

Podemos usar is.na() para encontrar todas las filas a las que les falta dep_time:

flights |> 
  filter(is.na(dep_time))
#> # A tibble: 8,255 × 19
#>    year month   day dep_time sched_dep_time dep_delay arr_time sched_arr_time
#>   <int> <int> <int>    <int>          <int>     <dbl>    <int>          <int>
#> 1  2013     1     1       NA           1630        NA       NA           1815
#> 2  2013     1     1       NA           1935        NA       NA           2240
#> 3  2013     1     1       NA           1500        NA       NA           1825
#> 4  2013     1     1       NA            600        NA       NA            901
#> 5  2013     1     2       NA           1540        NA       NA           1747
#> 6  2013     1     2       NA           1620        NA       NA           1746
#> # ℹ 8,249 more rows
#> # ℹ 11 more variables: arr_delay <dbl>, carrier <chr>, flight <int>, …

is.na() también puede ser útil en arrange(). arrange() generalmente coloca todos los valores faltantes al final, pero puede anular este valor predeterminado ordenando primero por is.na():

flights |> 
  filter(month == 1, day == 1) |> 
  arrange(dep_time)
#> # A tibble: 842 × 19
#>    year month   day dep_time sched_dep_time dep_delay arr_time sched_arr_time
#>   <int> <int> <int>    <int>          <int>     <dbl>    <int>          <int>
#> 1  2013     1     1      517            515         2      830            819
#> 2  2013     1     1      533            529         4      850            830
#> 3  2013     1     1      542            540         2      923            850
#> 4  2013     1     1      544            545        -1     1004           1022
#> 5  2013     1     1      554            600        -6      812            837
#> 6  2013     1     1      554            558        -4      740            728
#> # ℹ 836 more rows
#> # ℹ 11 more variables: arr_delay <dbl>, carrier <chr>, flight <int>, …

flights |> 
  filter(month == 1, day == 1) |> 
  arrange(desc(is.na(dep_time)), dep_time)
#> # A tibble: 842 × 19
#>    year month   day dep_time sched_dep_time dep_delay arr_time sched_arr_time
#>   <int> <int> <int>    <int>          <int>     <dbl>    <int>          <int>
#> 1  2013     1     1       NA           1630        NA       NA           1815
#> 2  2013     1     1       NA           1935        NA       NA           2240
#> 3  2013     1     1       NA           1500        NA       NA           1825
#> 4  2013     1     1       NA            600        NA       NA            901
#> 5  2013     1     1      517            515         2      830            819
#> 6  2013     1     1      533            529         4      850            830
#> # ℹ 836 more rows
#> # ℹ 11 more variables: arr_delay <dbl>, carrier <chr>, flight <int>, …
…
Para entender lo que está pasando, piense en NA | TRUE (NA o TRUE). Un valor faltante en un vector lógico significa que el valor podría ser TRUE o FALSE. TRUE | TRUE y FALSE | TRUE son ambos TRUE porque al menos uno de ellos es TRUE. NA | TRUE también debe ser TRUE porque NA puede ser TRUE o FALSE. Sin embargo NA | FALSE es FALSE porque NA puede ser TRUE o FALSE Se aplica un razonamiento similar con NA & FALSE.

12.3.2 Orden de operaciones

Tenga en cuenta que el orden de las operaciones no funciona como en inglés. Tome el siguiente código que encuentra todos los vuelos que salieron en noviembre o diciembre:

flights |> 
   filter(month == 11 | month == 12)

Es posible que tenga la tentación de escribirlo como diría en inglés: “Buscar todos los vuelos que partieron en noviembre o diciembre”.:

flights |> 
   filter(month == 11 | 12)
#> # A tibble: 336,776 × 19
#>    year month   day dep_time sched_dep_time dep_delay arr_time sched_arr_time
#>   <int> <int> <int>    <int>          <int>     <dbl>    <int>          <int>
#> 1  2013     1     1      517            515         2      830            819
#> 2  2013     1     1      533            529         4      850            830
#> 3  2013     1     1      542            540         2      923            850
#> 4  2013     1     1      544            545        -1     1004           1022
#> 5  2013     1     1      554            600        -6      812            837
#> 6  2013     1     1      554            558        -4      740            728
#> # ℹ 336,770 more rows
#> # ℹ 11 more variables: arr_delay <dbl>, carrier <chr>, flight <int>, …

Este código no da error, pero tampoco parece haber funcionado. ¿Qué está sucediendo? Aquí, R primero evalúa month == 11 creando un vector lógico, al que llamamos nov. Calcula nov | 12. Cuando usa un número con un operador lógico, convierte todo menos 0 en TRUE, por lo que esto es equivalente a nov | TRUE que siempre será TRUE, por lo que se seleccionarán todas las filas:

flights |> 
  mutate(
    nov = month == 11,
    final = nov | 12,
    .keep = "used"
  )
#> # A tibble: 336,776 × 3
#>   month nov   final
#>   <int> <lgl> <lgl>
#> 1     1 FALSE TRUE 
#> 2     1 FALSE TRUE 
#> 3     1 FALSE TRUE 
#> 4     1 FALSE TRUE 
#> 5     1 FALSE TRUE 
#> 6     1 FALSE TRUE 
#> # ℹ 336,770 more rows
…
flights |> 
  filter(month %in% c(11, 12))

Tenga en cuenta que %in% obedece reglas diferentes para NA y ==, ya que NA %in% NA es TRUE.

c(1, 2, NA) == NA
#> [1] NA NA NA
c(1, 2, NA) %in% NA
#> [1] FALSE FALSE  TRUE

Esto puede ser un atajo útil:

flights |> 
  filter(dep_time %in% c(NA, 0800))
#> # A tibble: 8,803 × 19
#>    year month   day dep_time sched_dep_time dep_delay arr_time sched_arr_time
#>   <int> <int> <int>    <int>          <int>     <dbl>    <int>          <int>
#> 1  2013     1     1      800            800         0     1022           1014
#> 2  2013     1     1      800            810       -10      949            955
#> 3  2013     1     1       NA           1630        NA       NA           1815
#> 4  2013     1     1       NA           1935        NA       NA           2240
#> 5  2013     1     1       NA           1500        NA       NA           1825
#> 6  2013     1     1       NA            600        NA       NA            901
#> # ℹ 8,797 more rows
#> # ℹ 11 more variables: arr_delay <dbl>, carrier <chr>, flight <int>, …
…
12.4.1 Resúmenes lógicos

Hay dos resúmenes lógicos principales: any() y all(). any(x) es el equivalente de |; devolverá TRUE si hay algún TRUE en x. all(x) es equivalente a &; devolverá TRUE solo si todos los valores de x son TRUE. Como casi todas las funciones de resumen, puede hacer que los valores faltantes desaparezcan con na.rm = TRUE.

Por ejemplo, podríamos usar all() y any() para averiguar si todos los vuelos se retrasaron a la salida como máximo una hora o si algún vuelo se retrasó a la llegada cinco horas o más. Y usar group_by() nos permite hacer eso por día:

flights |> 
  group_by(year, month, day) |> 
  summarize(
    all_delayed = all(dep_delay <= 60, na.rm = TRUE),
    any_long_delay = any(arr_delay >= 300, na.rm = TRUE),
    .groups = "drop"
  )
#> # A tibble: 365 × 5
#>    year month   day all_delayed any_long_delay
#>   <int> <int> <int> <lgl>       <lgl>         
#> 1  2013     1     1 FALSE       TRUE          
#> 2  2013     1     2 FALSE       TRUE          
#> 3  2013     1     3 FALSE       FALSE         
#> 4  2013     1     4 FALSE       FALSE         
#> 5  2013     1     5 FALSE       TRUE          
#> 6  2013     1     6 FALSE       FALSE         
#> # ℹ 359 more rows
…
12.4.2 Resúmenes numéricos de vectores lógicos

Cuando usa un vector lógico en un contexto numérico, TRUE se convierte en 1 y FALSE se convierte en 0. Esto hace que sum() y mean() sean muy útiles con vectores lógicos porque sum(x) da el número de TRUEs y mean(x) da la proporción de TRUEs (porque mean() es simplemente sum() dividido por length()).

Eso, por ejemplo, nos permite ver la proporción de vuelos que se retrasaron a la salida como máximo una hora y la cantidad de vuelos que se retrasaron a la llegada cinco horas o más:

flights |> 
  group_by(year, month, day) |> 
  summarize(
    proportion_delayed = mean(dep_delay <= 60, na.rm = TRUE),
    count_long_delay = sum(arr_delay >= 300, na.rm = TRUE),
    .groups = "drop"
  )
#> # A tibble: 365 × 5
#>    year month   day proportion_delayed count_long_delay
#>   <int> <int> <int>              <dbl>            <int>
#> 1  2013     1     1              0.939                3
#> 2  2013     1     2              0.914                3
#> 3  2013     1     3              0.941                0
#> 4  2013     1     4              0.953                0
#> 5  2013     1     5              0.964                1
#> 6  2013     1     6              0.959                0
#> # ℹ 359 more rows
12.4.3 Subconjunto lógico

Hay un uso final para los vectores lógicos en los resúmenes: puede usar un vector lógico para filtrar una sola variable a un subconjunto de interés. Esto hace uso del operador base [ (subconjunto pronunciado), sobre el que obtendrá más información en Sección 27.2.

Imagine que quisiéramos ver el retraso promedio solo para los vuelos que realmente se retrasaron. Una forma de hacerlo sería filtrar primero los vuelos y luego calcular el retraso promedio:

flights |> 
  filter(arr_delay > 0) |> 
  group_by(year, month, day) |> 
  summarize(
    behind = mean(arr_delay),
    n = n(),
    .groups = "drop"
  )
#> # A tibble: 365 × 5
#>    year month   day behind     n
#>   <int> <int> <int>  <dbl> <int>
#> 1  2013     1     1   32.5   461
#> 2  2013     1     2   32.0   535
#> 3  2013     1     3   27.7   460
#> 4  2013     1     4   28.3   297
#> 5  2013     1     5   22.6   238
#> 6  2013     1     6   24.4   381
#> # ℹ 359 more rows

Esto funciona, pero ¿y si también quisiéramos calcular el retraso promedio de los vuelos que llegaron temprano? Tendríamos que realizar un paso de filtro por separado y luego descubrir cómo combinar los dos marcos de datos juntos [^ lógicos-3]. En su lugar, podría usar [ para realizar un filtrado en línea: arr_delay[arr_delay > 0] generará solo los retrasos de llegada positivos.

Esto lleva a:

flights |> 
  group_by(year, month, day) |> 
  summarize(
    behind = mean(arr_delay[arr_delay > 0], na.rm = TRUE),
    ahead = mean(arr_delay[arr_delay < 0], na.rm = TRUE),
    n = n(),
    .groups = "drop"
  )
#> # A tibble: 365 × 6
#>    year month   day behind ahead     n
#>   <int> <int> <int>  <dbl> <dbl> <int>
#> 1  2013     1     1   32.5 -12.5   842
#> 2  2013     1     2   32.0 -14.3   943
#> 3  2013     1     3   27.7 -18.2   914
#> 4  2013     1     4   28.3 -17.0   915
#> 5  2013     1     5   22.6 -14.0   720
#> 6  2013     1     6   24.4 -13.6   832
#> # ℹ 359 more rows
…
Al igual que con if_else(), puede usar variables en ambos lados de ~ y puede mezclar y combinar variables según sea necesario para su problema. Por ejemplo, podríamos usar case_when() para proporcionar algunas etiquetas legibles por humanos para el retraso de llegada:

flights |> 
  mutate(
    status = case_when(
      is.na(arr_delay)      ~ "cancelado",
      arr_delay < -30       ~ "muy temprano",
      arr_delay < -15       ~ "temprano",
      abs(arr_delay) <= 15  ~ "a tiempo",
      arr_delay < 60        ~ "tarde",
      arr_delay < Inf       ~ "muy tarde",
    ),
    .keep = "used"
  )
#> # A tibble: 336,776 × 2
#>   arr_delay status  
#>       <dbl> <chr>   
#> 1        11 a tiempo
#> 2        20 tarde   
#> 3        33 tarde   
#> 4       -18 temprano
#> 5       -25 temprano
#> 6        12 a tiempo
#> # ℹ 336,770 more rows
…
