18 Valores faltanres – R para la Ciencia de Datos (2e)
…
De forma predeterminada, hacer que los datos duren más tiempo conserva los valores faltantes explícitos, pero si son valores faltantes estructuralmente que solo existen porque los datos no están ordenados, puede descartarlos (hacerlos implícitos) configurando values_drop_na = TRUE. Consulte los ejemplos en Sección 5.2 para obtener más detalles.

18.3.2 Completo

tidyr::complete() te permite generar valores perdidos explícitos proporcionando un conjunto de variables que definen la combinación de filas que deberían existir. Por ejemplo, sabemos que todas las combinaciones de year y qtr deben existir en los datos de stocks:

stocks |>
  complete(year, qtr)
#> # A tibble: 8 × 3
#>    year   qtr price
#>   <dbl> <dbl> <dbl>
#> 1  2020     1  1.88
#> 2  2020     2  0.59
#> 3  2020     3  0.35
#> 4  2020     4 NA   
#> 5  2021     1 NA   
#> 6  2021     2  0.92
#> # ℹ 2 more rows

Por lo general, llamará a complete() con los nombres de las variables existentes, completando las combinaciones que faltan. Sin embargo, a veces las variables individuales están incompletas, por lo que puede proporcionar sus propios datos. Por ejemplo, es posible que sepa que se supone que el conjunto de datos de stocks se ejecutará desde 2019 hasta 2021, por lo que podría proporcionar explícitamente esos valores para year:

stocks |>
  complete(year = 2019:2021, qtr)
#> # A tibble: 12 × 3
#>    year   qtr price
#>   <dbl> <dbl> <dbl>
#> 1  2019     1 NA   
#> 2  2019     2 NA   
#> 3  2019     3 NA   
#> 4  2019     4 NA   
#> 5  2020     1  1.88
#> 6  2020     2  0.59
#> # ℹ 6 more rows
…
flights |> 
  distinct(tailnum) |> 
  anti_join(planes)
#> Joining with `by = join_by(tailnum)`
#> # A tibble: 722 × 1
#>   tailnum
#>   <chr>  
#> 1 N3ALAA 
#> 2 N3DUAA 
#> 3 N542MQ 
#> 4 N730MQ 
#> 5 N9EAMQ 
#> 6 N532UA 
#> # ℹ 716 more rows
…
