20 Hojas de calculo – R para la Ciencia de Datos (2e)
…
Figura 20.2: Hoja de cálculo llamada penguins.xlsx en Excel que contiene tres hojas de cálculo.

Puede leer una sola hoja de trabajo desde una hoja de cálculo con el argumento sheet en read_excel(). El valor predeterminado, en el que nos hemos basado hasta ahora, es la primera hoja.

read_excel("data/penguins.xlsx", sheet = "Torgersen Island")
#> # A tibble: 52 × 8
#>   species island    bill_length_mm     bill_depth_mm      flipper_length_mm
#>   <chr>   <chr>     <chr>              <chr>              <chr>            
#> 1 Adelie  Torgersen 39.1               18.7               181              
#> 2 Adelie  Torgersen 39.5               17.399999999999999 186              
#> 3 Adelie  Torgersen 40.299999999999997 18                 195              
#> 4 Adelie  Torgersen NA                 NA                 NA               
#> 5 Adelie  Torgersen 36.700000000000003 19.3               193              
#> 6 Adelie  Torgersen 39.299999999999997 20.6               190              
#> # ℹ 46 more rows
#> # ℹ 3 more variables: body_mass_g <chr>, sex <chr>, year <dbl>

Algunas variables que parecen contener datos numéricos se leen como caracteres debido a que la cadena de caracteres "NA" no se reconoce como verdadera NA.

penguins_torgersen <- read_excel("data/penguins.xlsx", sheet = "Torgersen Island", na = "NA")

penguins_torgersen
#> # A tibble: 52 × 8
#>   species island    bill_length_mm bill_depth_mm flipper_length_mm
#>   <chr>   <chr>              <dbl>         <dbl>             <dbl>
#> 1 Adelie  Torgersen           39.1          18.7               181
#> 2 Adelie  Torgersen           39.5          17.4               186
#> 3 Adelie  Torgersen           40.3          18                 195
#> 4 Adelie  Torgersen           NA            NA                  NA
#> 5 Adelie  Torgersen           36.7          19.3               193
#> 6 Adelie  Torgersen           39.3          20.6               190
#> # ℹ 46 more rows
#> # ℹ 3 more variables: body_mass_g <dbl>, sex <chr>, year <dbl>
…
En este caso, el conjunto de datos completo de pingüinos se distribuye en tres hojas de trabajo en la hoja de cálculo. Cada hoja de cálculo tiene el mismo número de columnas pero diferente número de filas.

dim(penguins_torgersen)
#> [1] 52  8
dim(penguins_biscoe)
#> [1] 168   8
dim(penguins_dream)
#> [1] 124   8

Podemos juntarlos con bind_rows().

penguins <- bind_rows(penguins_torgersen, penguins_biscoe, penguins_dream)
penguins
#> # A tibble: 344 × 8
#>   species island    bill_length_mm bill_depth_mm flipper_length_mm
#>   <chr>   <chr>              <dbl>         <dbl>             <dbl>
#> 1 Adelie  Torgersen           39.1          18.7               181
#> 2 Adelie  Torgersen           39.5          17.4               186
#> 3 Adelie  Torgersen           40.3          18                 195
#> 4 Adelie  Torgersen           NA            NA                  NA
#> 5 Adelie  Torgersen           36.7          19.3               193
#> 6 Adelie  Torgersen           39.3          20.6               190
#> # ℹ 338 more rows
#> # ℹ 3 more variables: body_mass_g <dbl>, sex <chr>, year <dbl>
…
Figura 20.3: Hoja de cálculo llamada death.xlsx en Excel.

Esta hoja de cálculo es una de las hojas de cálculo de ejemplo proporcionadas en el paquete readxl. Puede usar la función readxl_example() para ubicar la hoja de cálculo en su sistema en el directorio donde está instalado el paquete. Esta función devuelve la ruta a la hoja de cálculo, que puede usar en read_excel() como de costumbre.

deaths_path <- readxl_example("deaths.xlsx")
deaths <- read_excel(deaths_path)
#> New names:
#> • `` -> `...2`
#> • `` -> `...3`
#> • `` -> `...4`
#> • `` -> `...5`
#> • `` -> `...6`
deaths
#> # A tibble: 18 × 6
#>   `Lots of people`    ...2       ...3  ...4     ...5          ...6           
#>   <chr>               <chr>      <chr> <chr>    <chr>         <chr>          
#> 1 simply cannot resi… <NA>       <NA>  <NA>     <NA>          some notes     
#> 2 at                  the        top   <NA>     of            their spreadsh…
#> 3 or                  merging    <NA>  <NA>     <NA>          cells          
#> 4 Name                Profession Age   Has kids Date of birth Date of death  
#> 5 David Bowie         musician   69    TRUE     17175         42379          
#> 6 Carrie Fisher       actor      60    TRUE     20749         42731          
#> # ℹ 12 more rows

Las tres filas superiores y las cuatro filas inferiores no forman parte del marco de datos. Es posible eliminar estas filas superfluas usando los argumentos skip y n_max, pero recomendamos usar rangos de celdas. En Excel, la celda superior izquierda es A1. A medida que se mueve por las columnas hacia la derecha, la etiqueta de la celda se mueve hacia abajo en el alfabeto, es decir, B1, C1, etc. Y a medida que se mueve hacia abajo en una columna, el número en la etiqueta de la celda aumenta, es decir, A2, A3, etc.

Aquí, los datos que queremos leer comienzan en la celda A5 y terminan en la celda F15. En notación de hoja de cálculo, esto es A5:F15, que proporcionamos al argumento range:

read_excel(deaths_path, range = "A5:F15")
#> # A tibble: 10 × 6
#>   Name          Profession   Age `Has kids` `Date of birth`    
#>   <chr>         <chr>      <dbl> <lgl>      <dttm>             
#> 1 David Bowie   musician      69 TRUE       1947-01-08 00:00:00
#> 2 Carrie Fisher actor         60 TRUE       1956-10-21 00:00:00
#> 3 Chuck Berry   musician      90 TRUE       1926-10-18 00:00:00
#> 4 Bill Paxton   actor         61 TRUE       1955-05-17 00:00:00
#> 5 Prince        musician      57 TRUE       1958-06-07 00:00:00
#> 6 Alan Rickman  actor         69 FALSE      1946-02-21 00:00:00
#> # ℹ 4 more rows
#> # ℹ 1 more variable: `Date of death` <dttm>
…
Tenga en cuenta que aquí definimos los tipos de columna de manera un poco diferente, usando códigos cortos. Por ejemplo, “dcccc” significa “doble, carácter, carácter, carácter, carácter”.

También es posible leer hojas individuales de Google Sheets. Leamos la hoja “Isla Torgersen” de la Hoja de Google de pingüinos:

penguins_sheet_id <- "1aFu8lnD_g0yjF5O-K6SFgSEWiHPpgvFCF0NY9D6LXnY"
read_sheet(penguins_sheet_id, sheet = "Torgersen Island")
#> ✔ Reading from penguins.
#> ✔ Range ''Torgersen Island''.
#> # A tibble: 52 × 8
#>   species island    bill_length_mm bill_depth_mm flipper_length_mm
#>   <chr>   <chr>     <list>         <list>        <list>           
#> 1 Adelie  Torgersen <dbl [1]>      <dbl [1]>     <dbl [1]>        
#> 2 Adelie  Torgersen <dbl [1]>      <dbl [1]>     <dbl [1]>        
#> 3 Adelie  Torgersen <dbl [1]>      <dbl [1]>     <dbl [1]>        
#> 4 Adelie  Torgersen <chr [1]>      <chr [1]>     <chr [1]>        
#> 5 Adelie  Torgersen <dbl [1]>      <dbl [1]>     <dbl [1]>        
#> 6 Adelie  Torgersen <dbl [1]>      <dbl [1]>     <dbl [1]>        
#> # ℹ 46 more rows
#> # ℹ 3 more variables: body_mass_g <list>, sex <chr>, year <dbl>

Puede obtener una lista de todas las hojas dentro de una Hoja de Google con sheet_names():

sheet_names(penguins_sheet_id)
#> [1] "Torgersen Island" "Biscoe Island"    "Dream Island"

Finalmente, al igual que con read_excel(), podemos leer una parte de una hoja de cálculo de Google definiendo un range en read_sheet(). Tenga en cuenta que también estamos usando la función gs4_example() a continuación para ubicar una hoja de cálculo de Google de ejemplo que viene con el paquete googlesheets4.

deaths_url <- gs4_example("deaths")
deaths <- read_sheet(deaths_url, range = "A5:F15")
#> ✔ Reading from deaths.
#> ✔ Range A5:F15.
deaths
#> # A tibble: 10 × 6
#>   Name          Profession   Age `Has kids` `Date of birth`    
#>   <chr>         <chr>      <dbl> <lgl>      <dttm>             
#> 1 David Bowie   musician      69 TRUE       1947-01-08 00:00:00
#> 2 Carrie Fisher actor         60 TRUE       1956-10-21 00:00:00
#> 3 Chuck Berry   musician      90 TRUE       1926-10-18 00:00:00
#> 4 Bill Paxton   actor         61 TRUE       1955-05-17 00:00:00
#> 5 Prince        musician      57 TRUE       1958-06-07 00:00:00
#> 6 Alan Rickman  actor         69 FALSE      1946-02-21 00:00:00
#> # ℹ 4 more rows
#> # ℹ 1 more variable: `Date of death` <dttm>
…
