R para la Ciencia de Datos (2e) - 14 Caracteres
…
Es más raro ver separate_longer_position() en la naturaleza, pero algunos conjuntos de datos más antiguos usan un formato muy compacto donde cada carácter se usa para registrar un valor:

df2 <- tibble(x = c("1211", "131", "21"))
df2 |> 
  separate_longer_position(x, width = 1)
#> # A tibble: 9 × 1
#>   x    
#>   <chr>
#> 1 1    
#> 2 2    
#> 3 1    
#> 4 1    
#> 5 1    
#> 6 3    
#> # ℹ 3 more rows
…
En esta sección, le presentaremos funciones que le permitirán trabajar con letras individuales dentro de una cadena. Aprenderá a encontrar la longitud de una cadena, extraer subcadenas y manejar cadenas largas en diagramas y tablas.

14.5.1 Longitud

str_length() te dice el número de letras en la cadena:

str_length(c("a", "R for data science", NA))
#> [1]  1 18 NA

Podría usar esto con count() para encontrar la distribución de las longitudes de los nombres de bebés de EE. UU. y luego con filter() para ver los nombres más largos, que tienen 15 letras 7:

babynames |>
  count(length = str_length(name), wt = n)
#> # A tibble: 14 × 2
#>   length        n
#>    <int>    <int>
#> 1      2   338150
#> 2      3  8589596
#> 3      4 48506739
#> 4      5 87011607
#> 5      6 90749404
#> 6      7 72120767
#> # ℹ 8 more rows

babynames |> 
  filter(str_length(name) == 15) |> 
  count(name, wt = n, sort = TRUE)
#> # A tibble: 34 × 2
#>   name                n
#>   <chr>           <int>
#> 1 Franciscojavier   123
#> 2 Christopherjohn   118
#> 3 Johnchristopher   118
#> 4 Christopherjame   108
#> 5 Christophermich    52
#> 6 Ryanchristopher    45
#> # ℹ 28 more rows
…
Tenga en cuenta que str_sub() no fallará si la cadena es demasiado corta: solo devolverá tanto como sea posible:

str_sub("a", 1, 5)
#> [1] "a"

Podríamos usar str_sub() con mutate() para encontrar la primera y última letra de cada nombre:

babynames |> 
  mutate(
    first = str_sub(name, 1, 1),
    last = str_sub(name, -1, -1)
  )
#> # A tibble: 1,924,665 × 7
#>    year sex   name          n   prop first last 
#>   <dbl> <chr> <chr>     <int>  <dbl> <chr> <chr>
#> 1  1880 F     Mary       7065 0.0724 M     y    
#> 2  1880 F     Anna       2604 0.0267 A     a    
#> 3  1880 F     Emma       2003 0.0205 E     a    
#> 4  1880 F     Elizabeth  1939 0.0199 E     h    
#> 5  1880 F     Minnie     1746 0.0179 M     e    
#> 6  1880 F     Margaret   1578 0.0162 M     t    
#> # ℹ 1,924,659 more rows
…
