R para la Ciencia de Datos (2e) - 14 Números
…
Usa parse_number() cuando la cadena contenga texto no numérico que quieras ignorar. Esto es particularmente útil para datos de moneda y porcentajes:

x <- c("$1,234", "USD 3,513", "59%")
parse_number(x)
#> [1] 1234 3513   59

14.3 Contar

Es sorprendente la cantidad de ciencia de datos que puede hacer con solo conteos y un poco de aritmética básica, por lo que dplyr se esfuerza por hacer que contar sea lo más fácil posible con count(). Esta función es excelente para realizar exploraciones y comprobaciones rápidas durante el análisis:

flights |> count(dest)
#> # A tibble: 105 × 2
#>   dest      n
#>   <chr> <int>
#> 1 ABQ     254
#> 2 ACK     265
#> 3 ALB     439
#> 4 ANC       8
#> 5 ATL   17215
#> 6 AUS    2439
#> # ℹ 99 more rows

(A pesar de los consejos en sec-workflow-style, generalmente colocamos count() en una sola línea porque generalmente se usa en la consola para verificar rápidamente que un cálculo funciona como se esperaba.)

Si desea ver los valores más comunes, agregue sort = TRUE:

flights |> count(dest, sort = TRUE)
#> # A tibble: 105 × 2
#>   dest      n
#>   <chr> <int>
#> 1 ORD   17283
#> 2 ATL   17215
#> 3 LAX   16174
#> 4 BOS   15508
#> 5 MCO   14082
#> 6 CLT   14064
#> # ℹ 99 more rows

Y recuerda que si quieres ver todos los valores, puedes usar |> View() o |> print(n = Inf).

Puede realizar el mismo cálculo “a mano” con group_by(), summarize() y n(). Esto es útil porque le permite calcular otros resúmenes al mismo tiempo:

flights |> 
  group_by(dest) |> 
  summarize(
    n = n(),
    delay = mean(arr_delay, na.rm = TRUE)
  )
#> # A tibble: 105 × 3
#>   dest      n delay
#>   <chr> <int> <dbl>
#> 1 ABQ     254  4.38
#> 2 ACK     265  4.85
#> 3 ALB     439 14.4 
#> 4 ANC       8 -2.5 
#> 5 ATL   17215 11.3 
#> 6 AUS    2439  6.02
#> # ℹ 99 more rows
…
n()
#> Error in `n()`:
#> ! Must only be used inside data-masking verbs like `mutate()`,
#>   `filter()`, and `group_by()`.

Hay un par de variantes de n() y count() que pueden resultarle útiles:

n_distinct(x) cuenta el número de valores distintos (únicos) de una o más variables. Por ejemplo, podríamos averiguar qué destinos son atendidos por la mayoría de los transportistas:

flights |> 
  group_by(dest) |> 
  summarize(carriers = n_distinct(carrier)) |> 
  arrange(desc(carriers))
#> # A tibble: 105 × 2
#>   dest  carriers
#>   <chr>    <int>
#> 1 ATL          7
#> 2 BOS          7
#> 3 CLT          7
#> 4 ORD          7
#> 5 TPA          7
#> 6 AUS          6
#> # ℹ 99 more rows

Una cuenta ponderada es una suma. Por ejemplo, podría “contar” el número de millas que voló cada avión:

flights |> 
  group_by(tailnum) |> 
  summarize(miles = sum(distance))
#> # A tibble: 4,044 × 2
#>   tailnum  miles
#>   <chr>    <dbl>
#> 1 D942DN    3418
#> 2 N0EGMQ  250866
#> 3 N10156  115966
#> 4 N102UW   25722
#> 5 N103US   24619
#> 6 N104UW   25157
#> # ℹ 4,038 more rows

Los recuentos ponderados son un problema común, por lo que count() tiene un argumento wt que hace lo mismo:

flights |> count(tailnum, wt = distance)

Puede contar los valores perdidos combinando sum() y is.na(). En el conjunto de datos de flights, esto representa los vuelos que se cancelan:

flights |> 
  group_by(dest) |> 
  summarize(n_cancelled = sum(is.na(dep_time))) 
#> # A tibble: 105 × 2
#>   dest  n_cancelled
#>   <chr>       <int>
#> 1 ABQ             0
#> 2 ACK             0
#> 3 ALB            20
#> 4 ANC             0
#> 5 ATL           317
#> 6 AUS            21
#> # ℹ 99 more rows
…
En general, solo desea reciclar números individuales (es decir, vectores de longitud 1), pero R reciclará cualquier vector de longitud más corta. Por lo general (pero no siempre) le da una advertencia si el vector más largo no es un múltiplo del más corto:

x * c(1, 2)
#> [1]  1  4 10 40
x * c(1, 2, 3)
#> Warning in x * c(1, 2, 3): longitud de objeto mayor no es múltiplo de la
#> longitud de uno menor
#> [1]  1  4 30 20

Estas reglas de reciclaje también se aplican a las comparaciones lógicas (==, <, <=, >, >=, !=) y pueden conducir a un resultado sorprendente si accidentalmente usa == en lugar de %in% y el data frame tiene un número desafortunado de filas. Por ejemplo, tome este código que intenta encontrar todos los vuelos en enero y febrero:

flights |> 
  filter(month == c(1, 2))
#> # A tibble: 25,977 × 19
#>    year month   day dep_time sched_dep_time dep_delay arr_time sched_arr_time
#>   <int> <int> <int>    <int>          <int>     <dbl>    <int>          <int>
#> 1  2013     1     1      517            515         2      830            819
#> 2  2013     1     1      542            540         2      923            850
#> 3  2013     1     1      554            600        -6      812            837
#> 4  2013     1     1      555            600        -5      913            854
#> 5  2013     1     1      557            600        -3      838            846
#> 6  2013     1     1      558            600        -2      849            851
#> # ℹ 25,971 more rows
#> # ℹ 11 more variables: arr_delay <dbl>, carrier <chr>, flight <int>, …
…
1:10 %/% 3
#>  [1] 0 0 1 1 1 2 2 2 3 3
1:10 %% 3
#>  [1] 1 2 0 1 2 0 1 2 0 1

La aritmética modular es útil para el conjunto de datos flights, porque podemos usarla para desempaquetar la variable sched_dep_time en hour y minute:

flights |> 
  mutate(
    hour = sched_dep_time %/% 100,
    minute = sched_dep_time %% 100,
    .keep = "used"
  )
#> # A tibble: 336,776 × 3
#>   sched_dep_time  hour minute
#>            <int> <dbl>  <dbl>
#> 1            515     5     15
#> 2            529     5     29
#> 3            540     5     40
#> 4            545     5     45
#> 5            600     6      0
#> 6            558     5     58
#> # ℹ 336,770 more rows
…
Puede lograr muchos de los mismos resultados eligiendo el argumento ties.method adecuado para basar el rank() de R; probablemente también querrá configurar na.last = "keep" para mantener NAs como NA.

row_number() también se puede usar sin ningún argumento dentro de un verbo dplyr. En este caso, dará el número de la fila “current”. Cuando se combina con %% o %/%, esta puede ser una herramienta útil para dividir datos en grupos de tamaño similar:

df <- tibble(id = 1:10)

df |> 
  mutate(
    row0 = row_number() - 1,
    three_groups = row0 %% 3,
    three_in_each_group = row0 %/% 3
  )
#> # A tibble: 10 × 4
#>      id  row0 three_groups three_in_each_group
#>   <int> <dbl>        <dbl>               <dbl>
#> 1     1     0            0                   0
#> 2     2     1            1                   0
#> 3     3     2            2                   0
#> 4     4     3            0                   1
#> 5     5     4            1                   1
#> 6     6     5            2                   1
#> # ℹ 4 more rows
…
A veces desea iniciar un nuevo grupo cada vez que ocurre algún evento. Por ejemplo, cuando está mirando los datos del sitio web, es común querer dividir los eventos en sesiones, donde comienza una nueva sesión después de un intervalo de más de x minutos desde la última actividad. Por ejemplo, imagina que tienes las veces que alguien visitó un sitio web:

events <- tibble(
  time = c(0, 1, 2, 3, 5, 10, 12, 15, 17, 19, 20, 27, 28, 30)
)

Y calculó el tiempo entre cada evento y descubrió si hay una brecha lo suficientemente grande como para calificar:

events <- events |> 
  mutate(
    diff = time - lag(time, default = first(time)),
    has_gap = diff >= 5
  )
events
#> # A tibble: 14 × 3
#>    time  diff has_gap
#>   <dbl> <dbl> <lgl>  
#> 1     0     0 FALSE  
#> 2     1     1 FALSE  
#> 3     2     1 FALSE  
#> 4     3     1 FALSE  
#> 5     5     2 FALSE  
#> 6    10     5 TRUE   
#> # ℹ 8 more rows

Pero, ¿cómo pasamos de ese vector lógico a algo que podamos group_by()? cumsum(), de sec-cumulative-and-rolling-aggregates, viene al rescate como brecha, es decir, has_gap es TRUE, incrementará group en uno (sec-numeric-summaries-of -lógicos):

events |> mutate(
  group = cumsum(has_gap)
)
#> # A tibble: 14 × 4
#>    time  diff has_gap group
#>   <dbl> <dbl> <lgl>   <int>
#> 1     0     0 FALSE       0
#> 2     1     1 FALSE       0
#> 3     2     1 FALSE       0
#> 4     3     1 FALSE       0
#> 5     5     2 FALSE       0
#> 6    10     5 TRUE        1
#> # ℹ 8 more rows

Otro enfoque para crear variables de agrupación es consecutive_id(), que inicia un nuevo grupo cada vez que cambia uno de sus argumentos. Por ejemplo, inspirado por esta pregunta de stackoverflow, imagine que tiene un data frame con un montón de valores repetidos:

df <- tibble(
  x = c("a", "a", "a", "b", "c", "c", "d", "e", "a", "a", "b", "b"),
  y = c(1, 2, 3, 2, 4, 1, 3, 9, 4, 8, 10, 199)
)

Si desea conservar la primera fila de cada x repetida, puede usar group_by(), consecutive_id() y slice_head():

df |> 
  group_by(id = consecutive_id(x)) |> 
  slice_head(n = 1)
#> # A tibble: 7 × 3
#> # Groups:   id [7]
#>   x         y    id
#>   <chr> <dbl> <int>
#> 1 a         1     1
#> 2 b         2     2
#> 3 c         4     3
#> 4 d         3     4
#> 5 e         9     5
#> 6 a         4     6
#> # ℹ 1 more row
…
14.6.2 Mínimo, máximo y cuantiles

¿Qué pasa si estás interesado en lugares que no sean el centro? min() y max() le darán los valores más grandes y más pequeños. Otra herramienta poderosa es quantile(), que es una generalización de la mediana: quantile(x, 0.25) encontrará el valor de x que es mayor que el 25% de los valores, quantile(x, 0.5) es equivalente a la mediana, y quantile(x, 0.95) encontrará el valor que es mayor que el 95% de los valores.

Para los datos de flights, es posible que desee observar el cuantil del 95 % de los retrasos en lugar del máximo, ya que ignorará el 5 % de la mayoría de los vuelos retrasados, lo que puede ser bastante extremo.

flights |>
  group_by(year, month, day) |>
  summarize(
    max = max(dep_delay, na.rm = TRUE),
    q95 = quantile(dep_delay, 0.95, na.rm = TRUE),
    .groups = "drop"
  )
#> # A tibble: 365 × 5
#>    year month   day   max   q95
#>   <int> <int> <int> <dbl> <dbl>
#> 1  2013     1     1   853  70.1
#> 2  2013     1     2   379  85  
#> 3  2013     1     3   291  68  
#> 4  2013     1     4   288  60  
#> 5  2013     1     5   327  41  
#> 6  2013     1     6   202  51  
#> # ℹ 359 more rows
…
Hay un último tipo de resumen que es útil para los vectores numéricos, pero también funciona con cualquier otro tipo de valor: extraer un valor en una posición específica: primero(x), último(x) y nth(x, n).

Por ejemplo, podemos encontrar la primera y la última salida de cada día:

flights |> 
  group_by(year, month, day) |> 
  summarize(
    first_dep = first(dep_time, na_rm = TRUE), 
    fifth_dep = nth(dep_time, 5, na_rm = TRUE),
    last_dep = last(dep_time, na_rm = TRUE)
  )
#> `summarise()` has grouped output by 'year', 'month'. You can override using
#> the `.groups` argument.
#> # A tibble: 365 × 6
#> # Groups:   year, month [12]
#>    year month   day first_dep fifth_dep last_dep
#>   <int> <int> <int>     <int>     <int>    <int>
#> 1  2013     1     1       517       554     2356
#> 2  2013     1     2        42       535     2354
#> 3  2013     1     3        32       520     2349
#> 4  2013     1     4        25       531     2358
#> 5  2013     1     5        14       534     2357
#> 6  2013     1     6        16       555     2355
#> # ℹ 359 more rows

(NB: Debido a que las funciones dplyr usan _ para separar los componentes de la función y los nombres de los argumentos, estas funciones usan na_rm en lugar de na.rm.)

Si está familiarizado con [, al que volveremos en sec-subset-many, es posible que se pregunte si alguna vez necesitará estas funciones. Hay tres razones: el argumento default le permite proporcionar un valor predeterminado si la posición especificada no existe, el argumento order_by le permite anular localmente el orden de las filas y el argumento na_rm le permite eliminar los valores perdidos.

La extracción de valores en posiciones es complementaria al filtrado en rangos. El filtrado le brinda todas las variables, con cada observación en una fila separada:

flights |> 
  group_by(year, month, day) |> 
  mutate(r = min_rank(sched_dep_time)) |> 
  filter(r %in% c(1, max(r)))
#> # A tibble: 1,195 × 20
#> # Groups:   year, month, day [365]
#>    year month   day dep_time sched_dep_time dep_delay arr_time sched_arr_time
#>   <int> <int> <int>    <int>          <int>     <dbl>    <int>          <int>
#> 1  2013     1     1      517            515         2      830            819
#> 2  2013     1     1     2353           2359        -6      425            445
#> 3  2013     1     1     2353           2359        -6      418            442
#> 4  2013     1     1     2356           2359        -3      425            437
#> 5  2013     1     2       42           2359        43      518            442
#> 6  2013     1     2      458            500        -2      703            650
#> # ℹ 1,189 more rows
#> # ℹ 12 more variables: arr_delay <dbl>, carrier <chr>, flight <int>, …
…
