R para la Ciencia de Datos (2e) - 27 Iteración
…
Actualmente no hay forma de hacer esto con across()3, pero es relativamente sencillo con pivot_longer():

df_long <- df_paired |> 
  pivot_longer(
    everything(), 
    names_to = c("group", ".value"), 
    names_sep = "_"
  )
df_long
#> # A tibble: 40 × 3
#>   group    val   wts
#>   <chr>  <dbl> <dbl>
#> 1 a      0.715 0.518
#> 2 b     -0.709 0.691
#> 3 c      0.718 0.216
#> 4 d     -0.217 0.733
#> 5 a     -1.09  0.979
#> 6 b     -0.209 0.675
#> # ℹ 34 more rows
…
Pero poner cada hoja en su propia variable hará que sea difícil trabajar con ellas unos pasos más adelante. En cambio, será más fácil trabajar con ellos si los ponemos en un solo objeto. Una lista es la herramienta perfecta para este trabajo:

files <- list(
  readxl::read_excel("data/gapminder/1952.xlsx"),
  readxl::read_excel("data/gapminder/1957.xlsx"),
  readxl::read_excel("data/gapminder/1962.xlsx"),
  ...,
  readxl::read_excel("data/gapminder/2007.xlsx")
)

Ahora que tiene estos data frames en una lista, ¿cómo obtiene uno? Puedes usar files[[i]] para extraer el i-ésimo elemento:

files[[3]]
#> # A tibble: 142 × 5
#>   country     continent lifeExp      pop gdpPercap
#>   <chr>       <chr>       <dbl>    <dbl>     <dbl>
#> 1 Afghanistan Asia         32.0 10267083      853.
#> 2 Albania     Europe       64.8  1728137     2313.
#> 3 Algeria     Africa       48.3 11000948     2551.
#> 4 Angola      Africa       34    4826015     4269.
#> 5 Argentina   Americas     65.1 21283783     7133.
#> 6 Australia   Oceania      70.9 10794968    12217.
#> # ℹ 136 more rows
…
list(
  f(x[[1]]),
  f(x[[2]]),
  ...,
  f(x[[n]])
)

Entonces podemos usar map() para obtener una lista de 12 data frames:

files <- map(paths, readxl::read_excel)
length(files)
#> [1] 12

files[[1]]
#> # A tibble: 142 × 5
#>   country     continent lifeExp      pop gdpPercap
#>   <chr>       <chr>       <dbl>    <dbl>     <dbl>
#> 1 Afghanistan Asia         28.8  8425333      779.
#> 2 Albania     Europe       55.2  1282697     1601.
#> 3 Algeria     Africa       43.1  9279525     2449.
#> 4 Angola      Africa       30.0  4232095     3521.
#> 5 Argentina   Americas     62.5 17876956     5911.
#> 6 Australia   Oceania      69.1  8691212    10040.
#> # ℹ 136 more rows

(Esta es otra estructura de datos que no se muestra de manera particularmente compacta con str(), por lo que es posible que desee cargarla en RStudio e inspeccionarla con View()).

Ahora podemos usar purrr::list_rbind() para combinar esa lista de data frames en un solo data frame:

list_rbind(files)
#> # A tibble: 1,704 × 5
#>   country     continent lifeExp      pop gdpPercap
#>   <chr>       <chr>       <dbl>    <dbl>     <dbl>
#> 1 Afghanistan Asia         28.8  8425333      779.
#> 2 Albania     Europe       55.2  1282697     1601.
#> 3 Algeria     Africa       43.1  9279525     2449.
#> 4 Angola      Africa       30.0  4232095     3521.
#> 5 Argentina   Americas     62.5 17876956     5911.
#> 6 Australia   Oceania      69.1  8691212    10040.
#> # ℹ 1,698 more rows

O podríamos hacer ambos pasos a la vez en una canalización:

paths |> 
  map(readxl::read_excel) |> 
  list_rbind()

¿Qué sucede si queremos pasar argumentos adicionales a read_excel()? Usamos la misma técnica que usamos con across(). Por ejemplo, suele ser útil alcanzar un máximo en las primeras filas de los datos con n_max = 1:

paths |> 
  map(\(path) readxl::read_excel(path, n_max = 1)) |> 
  list_rbind()
#> # A tibble: 12 × 5
#>   country     continent lifeExp      pop gdpPercap
#>   <chr>       <chr>       <dbl>    <dbl>     <dbl>
#> 1 Afghanistan Asia         28.8  8425333      779.
#> 2 Afghanistan Asia         30.3  9240934      821.
#> 3 Afghanistan Asia         32.0 10267083      853.
#> 4 Afghanistan Asia         34.0 11537966      836.
#> 5 Afghanistan Asia         36.1 13079460      740.
#> 6 Afghanistan Asia         38.4 14880372      786.
#> # ℹ 6 more rows
…
Eso hace que esta llamada a map() sea abreviada para:

files <- list(
  "1952.xlsx" = readxl::read_excel("data/gapminder/1952.xlsx"),
  "1957.xlsx" = readxl::read_excel("data/gapminder/1957.xlsx"),
  "1962.xlsx" = readxl::read_excel("data/gapminder/1962.xlsx"),
  ...,
  "2007.xlsx" = readxl::read_excel("data/gapminder/2007.xlsx")
)

También puedes usar [[ para extraer elementos por nombre:

files[["1962.xlsx"]]
#> # A tibble: 142 × 5
#>   country     continent lifeExp      pop gdpPercap
#>   <chr>       <chr>       <dbl>    <dbl>     <dbl>
#> 1 Afghanistan Asia         32.0 10267083      853.
#> 2 Albania     Europe       64.8  1728137     2313.
#> 3 Algeria     Africa       48.3 11000948     2551.
#> 4 Angola      Africa       34    4826015     4269.
#> 5 Argentina   Americas     65.1 21283783     7133.
#> 6 Australia   Oceania      70.9 10794968    12217.
#> # ℹ 136 more rows

Luego usamos el argumento names_to para list_rbind() para decirle que guarde los nombres en una nueva columna llamada year y luego usamos readr::parse_number() para extraer el número de la cadena.

paths |> 
  set_names(basename) |> 
  map(readxl::read_excel) |> 
  list_rbind(names_to = "year") |> 
  mutate(year = parse_number(year))
#> # A tibble: 1,704 × 6
#>    year country     continent lifeExp      pop gdpPercap
#>   <dbl> <chr>       <chr>       <dbl>    <dbl>     <dbl>
#> 1  1952 Afghanistan Asia         28.8  8425333      779.
#> 2  1952 Albania     Europe       55.2  1282697     1601.
#> 3  1952 Algeria     Africa       43.1  9279525     2449.
#> 4  1952 Angola      Africa       30.0  4232095     3521.
#> 5  1952 Argentina   Americas     62.5 17876956     5911.
#> 6  1952 Australia   Oceania      69.1  8691212    10040.
#> # ℹ 1,698 more rows

En casos más complicados, puede haber otras variables almacenadas en el nombre del directorio, o tal vez el nombre del archivo contenga varios bits de datos. En ese caso, use set_names() (sin ningún argumento) para registrar la ruta completa y luego use tidyr::separate_wider_delim() y sus amigos para convertirlos en columnas útiles.

paths |> 
  set_names() |> 
  map(readxl::read_excel) |> 
  list_rbind(names_to = "year") |> 
  separate_wider_delim(year, delim = "/", names = c(NA, "dir", "file")) |> 
  separate_wider_delim(file, delim = ".", names = c("file", "ext"))
#> # A tibble: 1,704 × 8
#>   dir       file  ext   country     continent lifeExp      pop gdpPercap
#>   <chr>     <chr> <chr> <chr>       <chr>       <dbl>    <dbl>     <dbl>
#> 1 gapminder 1952  xlsx  Afghanistan Asia         28.8  8425333      779.
#> 2 gapminder 1952  xlsx  Albania     Europe       55.2  1282697     1601.
#> 3 gapminder 1952  xlsx  Algeria     Africa       43.1  9279525     2449.
#> 4 gapminder 1952  xlsx  Angola      Africa       30.0  4232095     3521.
#> 5 gapminder 1952  xlsx  Argentina   Americas     62.5 17876956     5911.
#> 6 gapminder 1952  xlsx  Australia   Oceania      69.1  8691212    10040.
#> # ℹ 1,698 more rows
…
Luego puede aplicar esta función a todos los archivos, y tal vez hacer algunos cambios para que sea más fácil ver dónde están las diferencias. Por ejemplo, esto facilita la verificación de que las hojas de cálculo de gapminder con las que hemos estado trabajando son bastante homogéneas:

files |> 
  map(df_types) |> 
  list_rbind(names_to = "file_name") |> 
  select(-n_miss) |> 
  pivot_wider(names_from = col_name, values_from = col_type)
#> # A tibble: 12 × 6
#>   file_name country   continent lifeExp pop    gdpPercap
#>   <chr>     <chr>     <chr>     <chr>   <chr>  <chr>    
#> 1 1952.xlsx character character double  double double   
#> 2 1957.xlsx character character double  double double   
#> 3 1962.xlsx character character double  double double   
#> 4 1967.xlsx character character double  double double   
#> 5 1972.xlsx character character double  double double   
#> 6 1977.xlsx character character double  double double   
#> # ℹ 6 more rows
…
A veces, cuando se trabaja con muchos archivos a la vez, no es posible colocar todos los datos en la memoria a la vez y no se puede hacer map(files, read_csv). Un enfoque para lidiar con este problema es cargar sus datos en una base de datos para que pueda acceder solo a los bits que necesita con dbplyr.

Si tiene suerte, el paquete de base de datos que está utilizando proporcionará una función útil que toma un vector de rutas y las carga todas en la base de datos. Este es el caso con duckdb_read_csv() de duckdb:

con <- DBI::dbConnect(duckdb::duckdb())
duckdb::duckdb_read_csv(con, "gapminder", paths)

Esto funcionaría bien aquí, pero no tenemos archivos csv, sino hojas de cálculo de Excel. Así que vamos a tener que hacerlo “a mano”. Aprender a hacerlo a mano también te ayudará cuando tengas un montón de csvs y la base de datos con la que estás trabajando no tenga una función que los cargue todos.

Necesitamos comenzar creando una tabla que se llene con datos. La forma más sencilla de hacerlo es creando una plantilla, un data frame ficticio que contiene todas las columnas que queremos, pero solo una muestra de los datos. Para los datos de gapminder, podemos hacer esa plantilla leyendo un solo archivo y añadiéndole el año:

template <- readxl::read_excel(paths[[1]])
template$year <- 1952
template
#> # A tibble: 142 × 6
#>   country     continent lifeExp      pop gdpPercap  year
#>   <chr>       <chr>       <dbl>    <dbl>     <dbl> <dbl>
#> 1 Afghanistan Asia         28.8  8425333      779.  1952
#> 2 Albania     Europe       55.2  1282697     1601.  1952
#> 3 Algeria     Africa       43.1  9279525     2449.  1952
#> 4 Angola      Africa       30.0  4232095     3521.  1952
#> 5 Argentina   Americas     62.5 17876956     5911.  1952
#> 6 Australia   Oceania      69.1  8691212    10040.  1952
#> # ℹ 136 more rows
…
27.4.2 Escribir archivos csv

El mismo principio básico se aplica si queremos escribir varios archivos csv, uno para cada grupo. Imaginemos que queremos tomar los datos ggplot2::diamonds y guardar un archivo csv para cada clarity. Primero necesitamos hacer esos conjuntos de datos individuales. Hay muchas formas de hacerlo, pero hay una que nos gusta especialmente: group_nest().

by_clarity <- diamonds |> 
  group_nest(clarity)

by_clarity
#> # A tibble: 8 × 2
#>   clarity               data
#>   <ord>   <list<tibble[,9]>>
#> 1 I1               [741 × 9]
#> 2 SI2            [9,194 × 9]
#> 3 SI1           [13,065 × 9]
#> 4 VS2           [12,258 × 9]
#> 5 VS1            [8,171 × 9]
#> 6 VVS2           [5,066 × 9]
#> # ℹ 2 more rows

Esto nos da un nuevo tibble con ocho filas y dos columnas. clarity es nuestra variable de agrupación y data es una columna de lista que contiene un tibble para cada valor único de clarity:

by_clarity$data[[1]]
#> # A tibble: 741 × 9
#>   carat cut       color depth table price     x     y     z
#>   <dbl> <ord>     <ord> <dbl> <dbl> <int> <dbl> <dbl> <dbl>
#> 1  0.32 Premium   E      60.9    58   345  4.38  4.42  2.68
#> 2  1.17 Very Good J      60.2    61  2774  6.83  6.9   4.13
#> 3  1.01 Premium   F      61.8    60  2781  6.39  6.36  3.94
#> 4  1.01 Fair      E      64.5    58  2788  6.29  6.21  4.03
#> 5  0.96 Ideal     F      60.7    55  2801  6.37  6.41  3.88
#> 6  1.04 Premium   G      62.2    58  2801  6.46  6.41  4   
#> # ℹ 735 more rows

Ya que estamos aquí, creemos una columna que dé el nombre del archivo de salida, usando mutate() y str_glue():

by_clarity <- by_clarity |> 
  mutate(path = str_glue("diamonds-{clarity}.csv"))

by_clarity
#> # A tibble: 8 × 3
#>   clarity               data path             
#>   <ord>   <list<tibble[,9]>> <glue>           
#> 1 I1               [741 × 9] diamonds-I1.csv  
#> 2 SI2            [9,194 × 9] diamonds-SI2.csv 
#> 3 SI1           [13,065 × 9] diamonds-SI1.csv 
#> 4 VS2           [12,258 × 9] diamonds-VS2.csv 
#> 5 VS1            [8,171 × 9] diamonds-VS1.csv 
#> 6 VVS2           [5,066 × 9] diamonds-VVS2.csv
#> # ℹ 2 more rows
…
