R para la Ciencia de Datos (2e) - 16 Expresiones regulares
…
Ahora que tiene los conceptos básicos de las expresiones regulares bajo su cinturón, usémoslos con algunas funciones stringr y tidyr. En la siguiente sección, aprenderá cómo detectar la presencia o ausencia de una coincidencia, cómo contar el número de coincidencias, cómo reemplazar una coincidencia con texto fijo y cómo extraer texto usando un patrón.

16.3.1 Detectar coincidencias

str_detect() devuelve un vector lógico que es TRUE si el patrón coincide con un elemento del vector de caracteres y FALSE en caso contrario:

str_detect(c("a", "b", "c"), "[aeiou]")
#> [1]  TRUE FALSE FALSE

Dado que str_detect() devuelve un vector lógico de la misma longitud que el vector inicial, se empareja bien con filter(). Por ejemplo, este código encuentra todos los nombres más populares que contienen una “x” minúscula:

babynames |> 
  filter(str_detect(name, "x")) |> 
  count(name, wt = n, sort = TRUE)
#> # A tibble: 974 × 2
#>   name           n
#>   <chr>      <int>
#> 1 Alexander 665492
#> 2 Alexis    399551
#> 3 Alex      278705
#> 4 Alexandra 232223
#> 5 Max       148787
#> 6 Alexa     123032
#> # ℹ 968 more rows
…
str_count("abababa", "aba")
#> [1] 2
str_view("abababa", "aba")
#> [1] │ <aba>b<aba>

Es natural usar str_count() con mutate(). El siguiente ejemplo usa str_count() con clases de caracteres para contar el número de vocales y consonantes en cada nombre.

babynames |> 
  count(name) |> 
  mutate(
    vowels = str_count(name, "[aeiou]"),
    consonants = str_count(name, "[^aeiou]")
  )
#> # A tibble: 97,310 × 4
#>   name          n vowels consonants
#>   <chr>     <int>  <int>      <int>
#> 1 Aaban        10      2          3
#> 2 Aabha         5      2          3
#> 3 Aabid         2      2          3
#> 4 Aabir         1      2          3
#> 5 Aabriella     5      4          5
#> 6 Aada          1      2          2
#> # ℹ 97,304 more rows
…
Usa str_to_lower() para convertir los nombres a minúsculas: str_count(str_to_lower(name), "[aeiou]").

Esta variedad de enfoques es bastante típica cuando se trabaja con cadenas; a menudo, hay varias formas de alcanzar su objetivo, ya sea haciendo que su patrón sea más complicado o haciendo un preprocesamiento en su cadena. Si se queda atascado intentando un enfoque, a menudo puede ser útil cambiar de marcha y abordar el problema desde una perspectiva diferente.

En este caso, dado que estamos aplicando dos funciones al nombre, creo que es más fácil transformarlo primero:

babynames |> 
  count(name) |> 
  mutate(
    name = str_to_lower(name),
    vowels = str_count(name, "[aeiou]"),
    consonants = str_count(name, "[^aeiou]")
  )
#> # A tibble: 97,310 × 4
#>   name          n vowels consonants
#>   <chr>     <int>  <int>      <int>
#> 1 aaban        10      3          2
#> 2 aabha         5      3          2
#> 3 aabid         2      3          2
#> 4 aabir         1      3          2
#> 5 aabriella     5      5          4
#> 6 aada          1      3          1
#> # ℹ 97,304 more rows
…
Para extraer estos datos usando separate_wider_regex() solo necesitamos construir una secuencia de expresiones regulares que coincidan con cada pieza. Si queremos que el contenido de esa pieza aparezca en la salida, le damos un nombre:

df |> 
  separate_wider_regex(
    str,
    patterns = c(
      "<", 
      name = "[A-Za-z]+", 
      ">-", 
      gender = ".",
      "_", 
      age = "[0-9]+"
    )
  )
#> # A tibble: 7 × 3
#>   name    gender age  
#>   <chr>   <chr>  <chr>
#> 1 Sheryl  F      34   
#> 2 Kisha   F      45   
#> 3 Brandon N      33   
#> 4 Sharon  F      38   
#> 5 Penny   F      58   
#> 6 Justin  M      41   
#> # ℹ 1 more row
…
Puede convertir a un tibble y nombrar las columnas:

sentences |> 
  str_match("the (\\w+) (\\w+)") |> 
  as_tibble(.name_repair = "minimal") |> 
  set_names("match", "word1", "word2")
#> # A tibble: 720 × 3
#>   match             word1  word2 
#>   <chr>             <chr>  <chr> 
#> 1 the smooth planks smooth planks
#> 2 the sheet to      sheet  to    
#> 3 the depth of      depth  of    
#> 4 <NA>              <NA>   <NA>  
#> 5 <NA>              <NA>   <NA>  
#> 6 <NA>              <NA>   <NA>  
#> # ℹ 714 more rows
…
